﻿Log file open, 07/25/21 17:42:06
LogInit: Display: Running engine for game: UE4_OpenCV
LogPlatformFile: Not using cached read wrapper
LogTaskGraph: Started task graph with 5 named threads and 47 total threads with 3 sets of task threads.
LogStats: Stats thread started at 0.379160
LogD3D11RHI: Loaded GFSDK_Aftermath_Lib.x64.dll
LogICUInternationalization: ICU TimeZone Detection - Raw Offset: -5:00, Platform Override: ''
LogPluginManager: Mounting plugin Paper2D
LogPluginManager: Mounting plugin AISupport
LogPluginManager: Mounting plugin LightPropagationVolume
LogPluginManager: Mounting plugin CameraShakePreviewer
LogPluginManager: Mounting plugin ActorLayerUtilities
LogPluginManager: Mounting plugin AnimationSharing
LogPluginManager: Mounting plugin CLionSourceCodeAccess
LogPluginManager: Mounting plugin CodeLiteSourceCodeAccess
LogPluginManager: Mounting plugin GitSourceControl
LogPluginManager: Mounting plugin KDevelopSourceCodeAccess
LogPluginManager: Mounting plugin NullSourceCodeAccess
LogPluginManager: Mounting plugin PerforceSourceControl
LogPluginManager: Mounting plugin PlasticSourceControl
LogPluginManager: Mounting plugin RiderSourceCodeAccess
LogPluginManager: Mounting plugin SubversionSourceControl
LogPluginManager: Mounting plugin UObjectPlugin
LogPluginManager: Mounting plugin VisualStudioCodeSourceCodeAccess
LogPluginManager: Mounting plugin VisualStudioSourceCodeAccess
LogPluginManager: Mounting plugin XCodeSourceCodeAccess
LogPluginManager: Mounting plugin AssetManagerEditor
LogPluginManager: Mounting plugin CryptoKeys
LogPluginManager: Mounting plugin CurveEditorTools
LogPluginManager: Mounting plugin DataValidation
LogPluginManager: Mounting plugin EditorScriptingUtilities
LogPluginManager: Mounting plugin FacialAnimation
LogPluginManager: Mounting plugin GameplayTagsEditor
LogPluginManager: Mounting plugin GeometryMode
LogPluginManager: Mounting plugin MacGraphicsSwitching
LogPluginManager: Mounting plugin MaterialAnalyzer
LogPluginManager: Mounting plugin MobileLauncherProfileWizard
LogPluginManager: Mounting plugin PluginBrowser
LogPluginManager: Mounting plugin SpeedTreeImporter
LogPluginManager: Mounting plugin DatasmithContent
LogPluginManager: Mounting plugin VariantManagerContent
LogPluginManager: Mounting plugin AlembicImporter
LogPluginManager: Mounting plugin AutomationUtils
LogPluginManager: Mounting plugin BackChannel
LogPluginManager: Mounting plugin ChaosCloth
LogPluginManager: Mounting plugin ChaosClothEditor
LogPluginManager: Mounting plugin ChaosEditor
LogPluginManager: Mounting plugin ChaosNiagara
LogPluginManager: Mounting plugin ChaosSolverPlugin
LogPluginManager: Mounting plugin CharacterAI
LogPluginManager: Mounting plugin GeometryCache
LogPluginManager: Mounting plugin GeometryCollectionPlugin
LogPluginManager: Mounting plugin GeometryProcessing
LogPluginManager: Mounting plugin PlanarCut
LogPluginManager: Mounting plugin PlatformCrypto
LogPluginManager: Mounting plugin ProxyLODPlugin
LogPluginManager: Mounting plugin SkeletalReduction
LogPluginManager: Mounting plugin Niagara
LogPluginManager: Mounting plugin MagicLeap
LogPluginManager: Mounting plugin MagicLeapLightEstimation
LogPluginManager: Mounting plugin MagicLeapMedia
LogPluginManager: Mounting plugin MagicLeapPassableWorld
LogPluginManager: Mounting plugin MLSDK
LogPluginManager: Mounting plugin AndroidMedia
LogPluginManager: Mounting plugin AvfMedia
LogPluginManager: Mounting plugin ImgMedia
LogPluginManager: Mounting plugin MediaCompositing
LogPluginManager: Mounting plugin MediaPlayerEditor
LogPluginManager: Mounting plugin WebMMedia
LogPluginManager: Mounting plugin WmfMedia
LogPluginManager: Mounting plugin MeshPainting
LogPluginManager: Mounting plugin TcpMessaging
LogPluginManager: Mounting plugin UdpMessaging
LogPluginManager: Mounting plugin ActorSequence
LogPluginManager: Mounting plugin LevelSequenceEditor
LogPluginManager: Mounting plugin MatineeToLevelSequence
LogPluginManager: Mounting plugin MovieRenderPipeline
LogPluginManager: Mounting plugin TemplateSequence
LogPluginManager: Mounting plugin NetcodeUnitTest
LogPluginManager: Mounting plugin NUTUnrealEngine4
LogPluginManager: Mounting plugin OnlineSubsystemGooglePlay
LogPluginManager: Mounting plugin OnlineSubsystemIOS
LogPluginManager: Mounting plugin OnlineSubsystem
LogPluginManager: Mounting plugin OnlineSubsystemNull
LogPluginManager: Mounting plugin OnlineSubsystemUtils
LogPluginManager: Mounting plugin LauncherChunkInstaller
LogPluginManager: Mounting plugin AndroidDeviceProfileSelector
LogPluginManager: Mounting plugin AndroidMoviePlayer
LogPluginManager: Mounting plugin AndroidPermission
LogPluginManager: Mounting plugin AppleImageUtils
LogPluginManager: Mounting plugin AppleMoviePlayer
LogPluginManager: Mounting plugin ArchVisCharacter
LogPluginManager: Mounting plugin AssetTags
LogPluginManager: Mounting plugin AudioCapture
LogPluginManager: Mounting plugin CableComponent
LogPluginManager: Mounting plugin CustomMeshComponent
LogPluginManager: Mounting plugin EditableMesh
LogPluginManager: Mounting plugin ExampleDeviceProfileSelector
LogPluginManager: Mounting plugin GoogleCloudMessaging
LogPluginManager: Mounting plugin GooglePAD
LogPluginManager: Mounting plugin IOSDeviceProfileSelector
LogPluginManager: Mounting plugin LinuxDeviceProfileSelector
LogPluginManager: Mounting plugin LocationServicesBPLibrary
LogPluginManager: Mounting plugin MobilePatchingUtils
LogPluginManager: Mounting plugin OculusVR
LogPluginManager: Mounting plugin PhysXVehicles
LogPluginManager: Mounting plugin PostSplashScreen
LogPluginManager: Mounting plugin ProceduralMeshComponent
LogPluginManager: Mounting plugin RuntimePhysXCooking
LogPluginManager: Mounting plugin SignificanceManager
LogPluginManager: Mounting plugin SoundFields
LogPluginManager: Mounting plugin Synthesis
LogPluginManager: Mounting plugin WebMMoviePlayer
LogPluginManager: Mounting plugin WindowsMoviePlayer
LogPluginManager: Mounting plugin ScreenshotTools
LogPluginManager: Mounting plugin LeapMotion
LogPluginManager: Mounting plugin LeapUnreal
LogInit: Using libcurl 7.55.1-DEV
LogInit:  - built for x86_64-pc-win32
LogInit:  - supports SSL with OpenSSL/1.1.1
LogInit:  - supports HTTP deflate (compression) using libz 1.2.8
LogInit:  - other features:
LogInit:      CURL_VERSION_SSL
LogInit:      CURL_VERSION_LIBZ
LogInit:      CURL_VERSION_IPV6
LogInit:      CURL_VERSION_ASYNCHDNS
LogInit:      CURL_VERSION_LARGEFILE
LogInit:      CURL_VERSION_IDN
LogInit:  CurlRequestOptions (configurable via config and command line):
LogInit:  - bVerifyPeer = true  - Libcurl will verify peer certificate
LogInit:  - bUseHttpProxy = false  - Libcurl will NOT use HTTP proxy
LogInit:  - bDontReuseConnections = false  - Libcurl will reuse connections
LogInit:  - MaxHostConnections = 16  - Libcurl will limit the number of connections to a host
LogInit:  - LocalHostAddr = Default
LogInit:  - BufferSize = 65536
LogOnline: OSS: Creating online subsystem instance for: NULL
LogInit: WinSock: version 1.1 (2.2), MaxSocks=32767, MaxUdp=65467
LogOnline: OSS: TryLoadSubsystemAndSetDefault: Loaded subsystem for module [NULL]
LogOculusPluginWrapper: OculusPlugin initialized successfully
LogHMD: Failed initializing OVRPlugin 1.44.0
LogInit: Build: ++UE4+Release-4.25Plus-CL-0
LogInit: Engine Version: 4.25.0-0+++UE4+Release-4.25Plus
LogInit: Compatible Engine Version: 4.25.0-0+++UE4+Release-4.25Plus
LogInit: Net CL: 0
LogInit: OS: Windows 10 (Release 2009) (), CPU: AMD Ryzen 7 2700X Eight-Core Processor         , GPU: NVIDIA GeForce GTX 1070
LogInit: Compiled (64-bit): Jul 22 2021 11:32:06
LogInit: Compiled with Visual C++: 19.29.30038.01
LogInit: Build Configuration: Development
LogInit: Branch Name: ++UE4+Release-4.25Plus
LogInit: Command Line: 
LogInit: Base Directory: E:/GitHub/UnrealEngine/Engine/Binaries/Win64/
LogInit: Allocator: TBB
LogInit: Installed Engine Build: 0
LogDevObjectVersion: Number of dev versions registered: 26
LogDevObjectVersion:   Dev-Blueprints (B0D832E4-1F89-4F0D-ACCF-7EB736FD4AA2): 10
LogDevObjectVersion:   Dev-Build (E1C64328-A22C-4D53-A36C-8E866417BD8C): 0
LogDevObjectVersion:   Dev-Core (375EC13C-06E4-48FB-B500-84F0262A717E): 4
LogDevObjectVersion:   Dev-Editor (E4B068ED-F494-42E9-A231-DA0B2E46BB41): 38
LogDevObjectVersion:   Dev-Framework (CFFC743F-43B0-4480-9391-14DF171D2073): 37
LogDevObjectVersion:   Dev-Mobile (B02B49B5-BB20-44E9-A304-32B752E40360): 2
LogDevObjectVersion:   Dev-Networking (A4E4105C-59A1-49B5-A7C5-40C4547EDFEE): 0
LogDevObjectVersion:   Dev-Online (39C831C9-5AE6-47DC-9A44-9C173E1C8E7C): 0
LogDevObjectVersion:   Dev-Physics (78F01B33-EBEA-4F98-B9B4-84EACCB95AA2): 4
LogDevObjectVersion:   Dev-Platform (6631380F-2D4D-43E0-8009-CF276956A95A): 0
LogDevObjectVersion:   Dev-Rendering (12F88B9F-8875-4AFC-A67C-D90C383ABD29): 43
LogDevObjectVersion:   Dev-Sequencer (7B5AE74C-D270-4C10-A958-57980B212A5A): 12
LogDevObjectVersion:   Dev-VR (D7296918-1DD6-4BDD-9DE2-64A83CC13884): 3
LogDevObjectVersion:   Dev-LoadTimes (C2A15278-BFE7-4AFE-6C17-90FF531DF755): 1
LogDevObjectVersion:   Private-Geometry (6EACA3D4-40EC-4CC1-B786-8BED09428FC5): 3
LogDevObjectVersion:   Dev-AnimPhys (29E575DD-E0A3-4627-9D10-D276232CDCEA): 17
LogDevObjectVersion:   Dev-Anim (AF43A65D-7FD3-4947-9873-3E8ED9C1BB05): 7
LogDevObjectVersion:   Dev-ReflectionCapture (6B266CEC-1EC7-4B8F-A30B-E4D90942FC07): 1
LogDevObjectVersion:   Dev-Automation (0DF73D61-A23F-47EA-B727-89E90C41499A): 1
LogDevObjectVersion:   FortniteMain (601D1886-AC64-4F84-AA16-D3DE0DEAC7D6): 31
LogDevObjectVersion:   Dev-Enterprise (9DFFBCD6-494F-0158-E221-12823C92A888): 10
LogDevObjectVersion:   Dev-Niagara (F2AED0AC-9AFE-416F-8664-AA7FFA26D6FC): 1
LogDevObjectVersion:   Dev-Destruction (174F1F0B-B4C6-45A5-B13F-2EE8D0FB917D): 10
LogDevObjectVersion:   Dev-Physics-Ext (35F94A83-E258-406C-A318-09F59610247C): 37
LogDevObjectVersion:   Dev-PhysicsMaterial-Chaos (B68FC16E-8B1B-42E2-B453-215C058844FE): 1
LogDevObjectVersion:   Dev-CineCamera (B2E18506-4273-CFC2-A54E-F4BB758BBA07): 1
LogInit: Presizing for max 25165824 objects, including 0 objects not considered by GC, pre-allocating 0 bytes for permanent pool.
LogConfig: Applying CVar settings from Section [/Script/Engine.StreamingSettings] File [E:/GitHub/senior_design_backup/Template/Saved/Config/Windows/Engine.ini]
LogConfig: Setting CVar [[s.MinBulkDataSizeForAsyncLoading:131072]]
LogConfig: Setting CVar [[s.AsyncLoadingThreadEnabled:0]]
LogConfig: Setting CVar [[s.EventDrivenLoaderEnabled:1]]
LogConfig: Setting CVar [[s.WarnIfTimeLimitExceeded:0]]
LogConfig: Setting CVar [[s.TimeLimitExceededMultiplier:1.5]]
LogConfig: Setting CVar [[s.TimeLimitExceededMinTime:0.005]]
LogConfig: Setting CVar [[s.UseBackgroundLevelStreaming:1]]
LogConfig: Setting CVar [[s.PriorityAsyncLoadingExtraTime:15.0]]
LogConfig: Setting CVar [[s.LevelStreamingActorsUpdateTimeLimit:5.0]]
LogConfig: Setting CVar [[s.PriorityLevelStreamingActorsUpdateExtraTime:5.0]]
LogConfig: Setting CVar [[s.LevelStreamingComponentsRegistrationGranularity:10]]
LogConfig: Setting CVar [[s.UnregisterComponentsTimeLimit:1.0]]
LogConfig: Setting CVar [[s.LevelStreamingComponentsUnregistrationGranularity:5]]
LogConfig: Setting CVar [[s.FlushStreamingOnExit:1]]
LogInit: Object subsystem initialized
LogConfig: Setting CVar [[con.DebugEarlyDefault:1]]
LogConfig: Setting CVar [[r.setres:1280x720]]
[2021.07.25-21.42.07:824][  0]LogConfig: Setting CVar [[r.VSync:0]]
[2021.07.25-21.42.07:824][  0]LogConfig: Setting CVar [[r.RHICmdBypass:0]]
[2021.07.25-21.42.07:824][  0]LogConfig: Applying CVar settings from Section [/Script/Engine.RendererSettings] File [E:/GitHub/senior_design_backup/Template/Saved/Config/Windows/Engine.ini]
[2021.07.25-21.42.07:824][  0]LogConfig: Setting CVar [[r.GPUCrashDebugging:0]]
[2021.07.25-21.42.07:824][  0]LogConfig: Applying CVar settings from Section [/Script/Engine.RendererOverrideSettings] File [E:/GitHub/senior_design_backup/Template/Saved/Config/Windows/Engine.ini]
[2021.07.25-21.42.07:824][  0]LogConfig: Applying CVar settings from Section [/Script/Engine.StreamingSettings] File [E:/GitHub/senior_design_backup/Template/Saved/Config/Windows/Engine.ini]
[2021.07.25-21.42.07:824][  0]LogConfig: Setting CVar [[s.MinBulkDataSizeForAsyncLoading:131072]]
[2021.07.25-21.42.07:824][  0]LogConfig: Setting CVar [[s.AsyncLoadingThreadEnabled:0]]
[2021.07.25-21.42.07:824][  0]LogConfig: Setting CVar [[s.EventDrivenLoaderEnabled:1]]
[2021.07.25-21.42.07:824][  0]LogConfig: Setting CVar [[s.WarnIfTimeLimitExceeded:0]]
[2021.07.25-21.42.07:824][  0]LogConfig: Setting CVar [[s.TimeLimitExceededMultiplier:1.5]]
[2021.07.25-21.42.07:824][  0]LogConfig: Setting CVar [[s.TimeLimitExceededMinTime:0.005]]
[2021.07.25-21.42.07:824][  0]LogConfig: Setting CVar [[s.UseBackgroundLevelStreaming:1]]
[2021.07.25-21.42.07:824][  0]LogConfig: Setting CVar [[s.PriorityAsyncLoadingExtraTime:15.0]]
[2021.07.25-21.42.07:824][  0]LogConfig: Setting CVar [[s.LevelStreamingActorsUpdateTimeLimit:5.0]]
[2021.07.25-21.42.07:824][  0]LogConfig: Setting CVar [[s.PriorityLevelStreamingActorsUpdateExtraTime:5.0]]
[2021.07.25-21.42.07:824][  0]LogConfig: Setting CVar [[s.LevelStreamingComponentsRegistrationGranularity:10]]
[2021.07.25-21.42.07:824][  0]LogConfig: Setting CVar [[s.UnregisterComponentsTimeLimit:1.0]]
[2021.07.25-21.42.07:824][  0]LogConfig: Setting CVar [[s.LevelStreamingComponentsUnregistrationGranularity:5]]
[2021.07.25-21.42.07:824][  0]LogConfig: Setting CVar [[s.FlushStreamingOnExit:1]]
[2021.07.25-21.42.07:824][  0]LogConfig: Applying CVar settings from Section [/Script/Engine.GarbageCollectionSettings] File [E:/GitHub/senior_design_backup/Template/Saved/Config/Windows/Engine.ini]
[2021.07.25-21.42.07:824][  0]LogConfig: Setting CVar [[gc.MaxObjectsNotConsideredByGC:1]]
[2021.07.25-21.42.07:824][  0]LogConfig: Setting CVar [[gc.SizeOfPermanentObjectPool:0]]
[2021.07.25-21.42.07:824][  0]LogConfig: Setting CVar [[gc.FlushStreamingOnGC:0]]
[2021.07.25-21.42.07:824][  0]LogConfig: Setting CVar [[gc.NumRetriesBeforeForcingGC:10]]
[2021.07.25-21.42.07:824][  0]LogConfig: Setting CVar [[gc.AllowParallelGC:1]]
[2021.07.25-21.42.07:824][  0]LogConfig: Setting CVar [[gc.TimeBetweenPurgingPendingKillObjects:61.1]]
[2021.07.25-21.42.07:824][  0]LogConfig: Setting CVar [[gc.MaxObjectsInEditor:25165824]]
[2021.07.25-21.42.07:824][  0]LogConfig: Setting CVar [[gc.IncrementalBeginDestroyEnabled:1]]
[2021.07.25-21.42.07:824][  0]LogConfig: Setting CVar [[gc.CreateGCClusters:1]]
[2021.07.25-21.42.07:824][  0]LogConfig: Setting CVar [[gc.MinGCClusterSize:5]]
[2021.07.25-21.42.07:824][  0]LogConfig: Setting CVar [[gc.ActorClusteringEnabled:0]]
[2021.07.25-21.42.07:824][  0]LogConfig: Setting CVar [[gc.BlueprintClusteringEnabled:0]]
[2021.07.25-21.42.07:824][  0]LogConfig: Setting CVar [[gc.UseDisregardForGCOnDedicatedServers:0]]
[2021.07.25-21.42.07:824][  0]LogConfig: Applying CVar settings from Section [/Script/Engine.NetworkSettings] File [E:/GitHub/senior_design_backup/Template/Saved/Config/Windows/Engine.ini]
[2021.07.25-21.42.07:825][  0]LogConfig: Applying CVar settings from Section [/Script/UnrealEd.CookerSettings] File [E:/GitHub/senior_design_backup/Template/Saved/Config/Windows/Engine.ini]
[2021.07.25-21.42.07:834][  0]LogConfig: Applying CVar settings from Section [ViewDistanceQuality@3] File [E:/GitHub/senior_design_backup/Template/Saved/Config/Windows/Scalability.ini]
[2021.07.25-21.42.07:834][  0]LogConfig: Setting CVar [[r.SkeletalMeshLODBias:0]]
[2021.07.25-21.42.07:834][  0]LogConfig: Setting CVar [[r.ViewDistanceScale:1.0]]
[2021.07.25-21.42.07:834][  0]LogConfig: Applying CVar settings from Section [AntiAliasingQuality@3] File [E:/GitHub/senior_design_backup/Template/Saved/Config/Windows/Scalability.ini]
[2021.07.25-21.42.07:834][  0]LogConfig: Setting CVar [[r.PostProcessAAQuality:4]]
[2021.07.25-21.42.07:834][  0]LogConfig: Applying CVar settings from Section [ShadowQuality@3] File [E:/GitHub/senior_design_backup/Template/Saved/Config/Windows/Scalability.ini]
[2021.07.25-21.42.07:834][  0]LogConfig: Setting CVar [[r.LightFunctionQuality:1]]
[2021.07.25-21.42.07:834][  0]LogConfig: Setting CVar [[r.ShadowQuality:5]]
[2021.07.25-21.42.07:834][  0]LogConfig: Setting CVar [[r.Shadow.CSM.MaxCascades:10]]
[2021.07.25-21.42.07:834][  0]LogConfig: Setting CVar [[r.Shadow.MaxResolution:2048]]
[2021.07.25-21.42.07:834][  0]LogConfig: Setting CVar [[r.Shadow.MaxCSMResolution:2048]]
[2021.07.25-21.42.07:834][  0]LogConfig: Setting CVar [[r.Shadow.RadiusThreshold:0.01]]
[2021.07.25-21.42.07:834][  0]LogConfig: Setting CVar [[r.Shadow.DistanceScale:1.0]]
[2021.07.25-21.42.07:834][  0]LogConfig: Setting CVar [[r.Shadow.CSM.TransitionScale:1.0]]
[2021.07.25-21.42.07:834][  0]LogConfig: Setting CVar [[r.Shadow.PreShadowResolutionFactor:1.0]]
[2021.07.25-21.42.07:834][  0]LogConfig: Setting CVar [[r.DistanceFieldShadowing:1]]
[2021.07.25-21.42.07:834][  0]LogConfig: Setting CVar [[r.DistanceFieldAO:1]]
[2021.07.25-21.42.07:834][  0]LogConfig: Setting CVar [[r.AOQuality:2]]
[2021.07.25-21.42.07:834][  0]LogConfig: Setting CVar [[r.VolumetricFog:1]]
[2021.07.25-21.42.07:834][  0]LogConfig: Setting CVar [[r.VolumetricFog.GridPixelSize:8]]
[2021.07.25-21.42.07:834][  0]LogConfig: Setting CVar [[r.VolumetricFog.GridSizeZ:128]]
[2021.07.25-21.42.07:834][  0]LogConfig: Setting CVar [[r.VolumetricFog.HistoryMissSupersampleCount:4]]
[2021.07.25-21.42.07:834][  0]LogConfig: Setting CVar [[r.LightMaxDrawDistanceScale:1]]
[2021.07.25-21.42.07:834][  0]LogConfig: Setting CVar [[r.CapsuleShadows:1]]
[2021.07.25-21.42.07:834][  0]LogConfig: Applying CVar settings from Section [PostProcessQuality@3] File [E:/GitHub/senior_design_backup/Template/Saved/Config/Windows/Scalability.ini]
[2021.07.25-21.42.07:834][  0]LogConfig: Setting CVar [[r.MotionBlurQuality:4]]
[2021.07.25-21.42.07:834][  0]LogConfig: Setting CVar [[r.AmbientOcclusionMipLevelFactor:0.4]]
[2021.07.25-21.42.07:834][  0]LogConfig: Setting CVar [[r.AmbientOcclusionMaxQuality:100]]
[2021.07.25-21.42.07:834][  0]LogConfig: Setting CVar [[r.AmbientOcclusionLevels:-1]]
[2021.07.25-21.42.07:834][  0]LogConfig: Setting CVar [[r.AmbientOcclusionRadiusScale:1.0]]
[2021.07.25-21.42.07:834][  0]LogConfig: Setting CVar [[r.DepthOfFieldQuality:2]]
[2021.07.25-21.42.07:834][  0]LogConfig: Setting CVar [[r.RenderTargetPoolMin:400]]
[2021.07.25-21.42.07:834][  0]LogConfig: Setting CVar [[r.LensFlareQuality:2]]
[2021.07.25-21.42.07:834][  0]LogConfig: Setting CVar [[r.SceneColorFringeQuality:1]]
[2021.07.25-21.42.07:834][  0]LogConfig: Setting CVar [[r.EyeAdaptationQuality:2]]
[2021.07.25-21.42.07:834][  0]LogConfig: Setting CVar [[r.BloomQuality:5]]
[2021.07.25-21.42.07:834][  0]LogConfig: Setting CVar [[r.FastBlurThreshold:100]]
[2021.07.25-21.42.07:834][  0]LogConfig: Setting CVar [[r.Upscale.Quality:3]]
[2021.07.25-21.42.07:834][  0]LogConfig: Setting CVar [[r.Tonemapper.GrainQuantization:1]]
[2021.07.25-21.42.07:834][  0]LogConfig: Setting CVar [[r.LightShaftQuality:1]]
[2021.07.25-21.42.07:834][  0]LogConfig: Setting CVar [[r.Filter.SizeScale:1]]
[2021.07.25-21.42.07:834][  0]LogConfig: Setting CVar [[r.Tonemapper.Quality:5]]
[2021.07.25-21.42.07:834][  0]LogConfig: Setting CVar [[r.DOF.Gather.AccumulatorQuality:1        ; higher gathering accumulator quality]]
[2021.07.25-21.42.07:834][  0]LogConfig: Setting CVar [[r.DOF.Gather.PostfilterMethod:1          ; Median3x3 postfilering method]]
[2021.07.25-21.42.07:834][  0]LogConfig: Setting CVar [[r.DOF.Gather.EnableBokehSettings:0       ; no bokeh simulation when gathering]]
[2021.07.25-21.42.07:834][  0]LogConfig: Setting CVar [[r.DOF.Gather.RingCount:4                 ; medium number of samples when gathering]]
[2021.07.25-21.42.07:834][  0]LogConfig: Setting CVar [[r.DOF.Scatter.ForegroundCompositing:1    ; additive foreground scattering]]
[2021.07.25-21.42.07:834][  0]LogConfig: Setting CVar [[r.DOF.Scatter.BackgroundCompositing:2    ; additive background scattering]]
[2021.07.25-21.42.07:834][  0]LogConfig: Setting CVar [[r.DOF.Scatter.EnableBokehSettings:1      ; bokeh simulation when scattering]]
[2021.07.25-21.42.07:834][  0]LogConfig: Setting CVar [[r.DOF.Scatter.MaxSpriteRatio:0.1         ; only a maximum of 10% of scattered bokeh]]
[2021.07.25-21.42.07:834][  0]LogConfig: Setting CVar [[r.DOF.Recombine.Quality:1                ; cheap slight out of focus]]
[2021.07.25-21.42.07:834][  0]LogConfig: Setting CVar [[r.DOF.Recombine.EnableBokehSettings:0    ; no bokeh simulation on slight out of focus]]
[2021.07.25-21.42.07:834][  0]LogConfig: Setting CVar [[r.DOF.TemporalAAQuality:1                ; more stable temporal accumulation]]
[2021.07.25-21.42.07:834][  0]LogConfig: Setting CVar [[r.DOF.Kernel.MaxForegroundRadius:0.025]]
[2021.07.25-21.42.07:834][  0]LogConfig: Setting CVar [[r.DOF.Kernel.MaxBackgroundRadius:0.025]]
[2021.07.25-21.42.07:834][  0]LogConfig: Applying CVar settings from Section [TextureQuality@3] File [E:/GitHub/senior_design_backup/Template/Saved/Config/Windows/Scalability.ini]
[2021.07.25-21.42.07:834][  0]LogConfig: Setting CVar [[r.Streaming.MipBias:0]]
[2021.07.25-21.42.07:834][  0]LogConfig: Setting CVar [[r.Streaming.AmortizeCPUToGPUCopy:0]]
[2021.07.25-21.42.07:834][  0]LogConfig: Setting CVar [[r.Streaming.MaxNumTexturesToStreamPerFrame:0]]
[2021.07.25-21.42.07:834][  0]LogConfig: Setting CVar [[r.Streaming.Boost:1]]
[2021.07.25-21.42.07:834][  0]LogConfig: Setting CVar [[r.MaxAnisotropy:8]]
[2021.07.25-21.42.07:834][  0]LogConfig: Setting CVar [[r.VT.MaxAnisotropy:8]]
[2021.07.25-21.42.07:834][  0]LogConfig: Setting CVar [[r.Streaming.LimitPoolSizeToVRAM:0]]
[2021.07.25-21.42.07:834][  0]LogConfig: Setting CVar [[r.Streaming.PoolSize:1000]]
[2021.07.25-21.42.07:835][  0]LogConfig: Setting CVar [[r.Streaming.MaxEffectiveScreenSize:0]]
[2021.07.25-21.42.07:835][  0]LogConfig: Applying CVar settings from Section [EffectsQuality@3] File [E:/GitHub/senior_design_backup/Template/Saved/Config/Windows/Scalability.ini]
[2021.07.25-21.42.07:835][  0]LogConfig: Setting CVar [[r.TranslucencyLightingVolumeDim:64]]
[2021.07.25-21.42.07:835][  0]LogConfig: Setting CVar [[r.RefractionQuality:2]]
[2021.07.25-21.42.07:835][  0]LogConfig: Setting CVar [[r.SSR.Quality:3]]
[2021.07.25-21.42.07:835][  0]LogConfig: Setting CVar [[r.SSR.HalfResSceneColor:0]]
[2021.07.25-21.42.07:835][  0]LogConfig: Setting CVar [[r.SceneColorFormat:4]]
[2021.07.25-21.42.07:835][  0]LogConfig: Setting CVar [[r.DetailMode:2]]
[2021.07.25-21.42.07:835][  0]LogConfig: Setting CVar [[r.TranslucencyVolumeBlur:1]]
[2021.07.25-21.42.07:835][  0]LogConfig: Setting CVar [[r.MaterialQualityLevel:1 ; High quality]]
[2021.07.25-21.42.07:835][  0]LogConfig: Setting CVar [[r.SSS.Scale:1]]
[2021.07.25-21.42.07:835][  0]LogConfig: Setting CVar [[r.SSS.SampleSet:2]]
[2021.07.25-21.42.07:835][  0]LogConfig: Setting CVar [[r.SSS.Quality:1]]
[2021.07.25-21.42.07:835][  0]LogConfig: Setting CVar [[r.SSS.HalfRes:0]]
[2021.07.25-21.42.07:835][  0]LogConfig: Setting CVar [[r.SSGI.Quality:3]]
[2021.07.25-21.42.07:835][  0]LogConfig: Setting CVar [[r.EmitterSpawnRateScale:1.0]]
[2021.07.25-21.42.07:835][  0]LogConfig: Setting CVar [[r.ParticleLightQuality:2]]
[2021.07.25-21.42.07:835][  0]LogConfig: Setting CVar [[r.SkyAtmosphere.AerialPerspectiveLUT.FastApplyOnOpaque:1 ; Always have FastSkyLUT 1 in this case to avoid wrong sky]]
[2021.07.25-21.42.07:835][  0]LogConfig: Setting CVar [[r.SkyAtmosphere.AerialPerspectiveLUT.SampleCountPerSlice:1]]
[2021.07.25-21.42.07:835][  0]LogConfig: Setting CVar [[r.SkyAtmosphere.AerialPerspectiveLUT.DepthResolution:16.0]]
[2021.07.25-21.42.07:835][  0]LogConfig: Setting CVar [[r.SkyAtmosphere.FastSkyLUT:1]]
[2021.07.25-21.42.07:835][  0]LogConfig: Setting CVar [[r.SkyAtmosphere.FastSkyLUT.SampleCountMin:4.0]]
[2021.07.25-21.42.07:835][  0]LogConfig: Setting CVar [[r.SkyAtmosphere.FastSkyLUT.SampleCountMax:32.0]]
[2021.07.25-21.42.07:835][  0]LogConfig: Setting CVar [[r.SkyAtmosphere.SampleCountMin:4.0]]
[2021.07.25-21.42.07:835][  0]LogConfig: Setting CVar [[r.SkyAtmosphere.SampleCountMax:32.0]]
[2021.07.25-21.42.07:835][  0]LogConfig: Setting CVar [[r.SkyAtmosphere.TransmittanceLUT.UseSmallFormat:0]]
[2021.07.25-21.42.07:835][  0]LogConfig: Setting CVar [[r.SkyAtmosphere.TransmittanceLUT.SampleCount:10.0]]
[2021.07.25-21.42.07:835][  0]LogConfig: Setting CVar [[r.SkyAtmosphere.MultiScatteringLUT.SampleCount:15.0]]
[2021.07.25-21.42.07:835][  0]LogConfig: Applying CVar settings from Section [FoliageQuality@3] File [E:/GitHub/senior_design_backup/Template/Saved/Config/Windows/Scalability.ini]
[2021.07.25-21.42.07:835][  0]LogConfig: Setting CVar [[foliage.DensityScale:1.0]]
[2021.07.25-21.42.07:835][  0]LogConfig: Setting CVar [[grass.DensityScale:1.0]]
[2021.07.25-21.42.07:835][  0]LogConfig: Applying CVar settings from Section [ShadingQuality@3] File [E:/GitHub/senior_design_backup/Template/Saved/Config/Windows/Scalability.ini]
[2021.07.25-21.42.07:835][  0]LogConfig: Setting CVar [[r.HairStrands.SkyLighting.SampleCount:16]]
[2021.07.25-21.42.07:835][  0]LogConfig: Setting CVar [[r.HairStrands.SkyLighting.JitterIntegration:0]]
[2021.07.25-21.42.07:835][  0]LogConfig: Setting CVar [[r.HairStrands.SkyAO.SampleCount:16]]
[2021.07.25-21.42.07:835][  0]LogConfig: Setting CVar [[r.HairStrands.DeepShadow.SuperSampling:0]]
[2021.07.25-21.42.07:835][  0]LogConfig: Setting CVar [[r.HairStrands.VisibilityPPLL:0]]
[2021.07.25-21.42.07:835][  0]LogConfig: Setting CVar [[r.HairStrands.RasterizationScale:0.5]]
[2021.07.25-21.42.07:835][  0]LogConfig: Setting CVar [[r.HairStrands.VelocityRasterizationScale:1]]
[2021.07.25-21.42.07:835][  0]LogInit: Selected Device Profile: [Windows]
[2021.07.25-21.42.07:835][  0]LogInit: Applying CVar settings loaded from the selected device profile: [Windows]
[2021.07.25-21.42.07:835][  0]LogHAL: Display: Platform has ~ 16 GB [17107251200 / 17179869184 / 16], which maps to Larger [LargestMinGB=32, LargerMinGB=12, DefaultMinGB=8, SmallerMinGB=6, SmallestMinGB=0)
[2021.07.25-21.42.07:835][  0]LogInit: Going up to parent DeviceProfile []
[2021.07.25-21.42.07:835][  0]LogConfig: Applying CVar settings from Section [ViewDistanceQuality@2] File [E:/GitHub/senior_design_backup/Template/Saved/Config/Windows/Scalability.ini]
[2021.07.25-21.42.07:835][  0]LogConfig: Setting CVar [[r.SkeletalMeshLODBias:0]]
[2021.07.25-21.42.07:835][  0]LogConfig: Setting CVar [[r.ViewDistanceScale:0.8]]
[2021.07.25-21.42.07:835][  0]LogConfig: Applying CVar settings from Section [AntiAliasingQuality@2] File [E:/GitHub/senior_design_backup/Template/Saved/Config/Windows/Scalability.ini]
[2021.07.25-21.42.07:835][  0]LogConfig: Setting CVar [[r.PostProcessAAQuality:3]]
[2021.07.25-21.42.07:835][  0]LogConfig: Applying CVar settings from Section [ShadowQuality@2] File [E:/GitHub/senior_design_backup/Template/Saved/Config/Windows/Scalability.ini]
[2021.07.25-21.42.07:835][  0]LogConfig: Setting CVar [[r.LightFunctionQuality:1]]
[2021.07.25-21.42.07:835][  0]LogConfig: Setting CVar [[r.ShadowQuality:5]]
[2021.07.25-21.42.07:835][  0]LogConfig: Setting CVar [[r.Shadow.CSM.MaxCascades:4]]
[2021.07.25-21.42.07:835][  0]LogConfig: Setting CVar [[r.Shadow.MaxResolution:1024]]
[2021.07.25-21.42.07:835][  0]LogConfig: Setting CVar [[r.Shadow.MaxCSMResolution:2048]]
[2021.07.25-21.42.07:835][  0]LogConfig: Setting CVar [[r.Shadow.RadiusThreshold:0.04]]
[2021.07.25-21.42.07:835][  0]LogConfig: Setting CVar [[r.Shadow.DistanceScale:0.85]]
[2021.07.25-21.42.07:835][  0]LogConfig: Setting CVar [[r.Shadow.CSM.TransitionScale:0.8]]
[2021.07.25-21.42.07:835][  0]LogConfig: Setting CVar [[r.Shadow.PreShadowResolutionFactor:0.5]]
[2021.07.25-21.42.07:835][  0]LogConfig: Setting CVar [[r.DistanceFieldShadowing:1]]
[2021.07.25-21.42.07:835][  0]LogConfig: Setting CVar [[r.DistanceFieldAO:1]]
[2021.07.25-21.42.07:835][  0]LogConfig: Setting CVar [[r.AOQuality:1]]
[2021.07.25-21.42.07:835][  0]LogConfig: Setting CVar [[r.VolumetricFog:1]]
[2021.07.25-21.42.07:835][  0]LogConfig: Setting CVar [[r.VolumetricFog.GridPixelSize:16]]
[2021.07.25-21.42.07:835][  0]LogConfig: Setting CVar [[r.VolumetricFog.GridSizeZ:64]]
[2021.07.25-21.42.07:835][  0]LogConfig: Setting CVar [[r.VolumetricFog.HistoryMissSupersampleCount:4]]
[2021.07.25-21.42.07:835][  0]LogConfig: Setting CVar [[r.LightMaxDrawDistanceScale:1]]
[2021.07.25-21.42.07:835][  0]LogConfig: Setting CVar [[r.CapsuleShadows:1]]
[2021.07.25-21.42.07:835][  0]LogConfig: Applying CVar settings from Section [PostProcessQuality@2] File [E:/GitHub/senior_design_backup/Template/Saved/Config/Windows/Scalability.ini]
[2021.07.25-21.42.07:835][  0]LogConfig: Setting CVar [[r.MotionBlurQuality:3]]
[2021.07.25-21.42.07:835][  0]LogConfig: Setting CVar [[r.AmbientOcclusionMipLevelFactor:0.6]]
[2021.07.25-21.42.07:835][  0]LogConfig: Setting CVar [[r.AmbientOcclusionMaxQuality:100]]
[2021.07.25-21.42.07:836][  0]LogConfig: Setting CVar [[r.AmbientOcclusionLevels:-1]]
[2021.07.25-21.42.07:836][  0]LogConfig: Setting CVar [[r.AmbientOcclusionRadiusScale:1.5]]
[2021.07.25-21.42.07:836][  0]LogConfig: Setting CVar [[r.DepthOfFieldQuality:2]]
[2021.07.25-21.42.07:836][  0]LogConfig: Setting CVar [[r.RenderTargetPoolMin:400]]
[2021.07.25-21.42.07:836][  0]LogConfig: Setting CVar [[r.LensFlareQuality:2]]
[2021.07.25-21.42.07:836][  0]LogConfig: Setting CVar [[r.SceneColorFringeQuality:1]]
[2021.07.25-21.42.07:836][  0]LogConfig: Setting CVar [[r.EyeAdaptationQuality:2]]
[2021.07.25-21.42.07:836][  0]LogConfig: Setting CVar [[r.BloomQuality:5]]
[2021.07.25-21.42.07:836][  0]LogConfig: Setting CVar [[r.FastBlurThreshold:3]]
[2021.07.25-21.42.07:836][  0]LogConfig: Setting CVar [[r.Upscale.Quality:2]]
[2021.07.25-21.42.07:836][  0]LogConfig: Setting CVar [[r.Tonemapper.GrainQuantization:1]]
[2021.07.25-21.42.07:836][  0]LogConfig: Setting CVar [[r.LightShaftQuality:1]]
[2021.07.25-21.42.07:836][  0]LogConfig: Setting CVar [[r.Filter.SizeScale:0.8]]
[2021.07.25-21.42.07:836][  0]LogConfig: Setting CVar [[r.Tonemapper.Quality:5]]
[2021.07.25-21.42.07:836][  0]LogConfig: Setting CVar [[r.DOF.Gather.AccumulatorQuality:0        ; lower gathering accumulator quality]]
[2021.07.25-21.42.07:836][  0]LogConfig: Setting CVar [[r.DOF.Gather.PostfilterMethod:2          ; Max3x3 postfilering method]]
[2021.07.25-21.42.07:836][  0]LogConfig: Setting CVar [[r.DOF.Gather.EnableBokehSettings:0       ; no bokeh simulation when gathering]]
[2021.07.25-21.42.07:836][  0]LogConfig: Setting CVar [[r.DOF.Gather.RingCount:4                 ; medium number of samples when gathering]]
[2021.07.25-21.42.07:836][  0]LogConfig: Setting CVar [[r.DOF.Scatter.ForegroundCompositing:1    ; additive foreground scattering]]
[2021.07.25-21.42.07:836][  0]LogConfig: Setting CVar [[r.DOF.Scatter.BackgroundCompositing:1    ; no background occlusion]]
[2021.07.25-21.42.07:836][  0]LogConfig: Setting CVar [[r.DOF.Scatter.EnableBokehSettings:0      ; no bokeh simulation when scattering]]
[2021.07.25-21.42.07:836][  0]LogConfig: Setting CVar [[r.DOF.Scatter.MaxSpriteRatio:0.04        ; only a maximum of 4% of scattered bokeh]]
[2021.07.25-21.42.07:836][  0]LogConfig: Setting CVar [[r.DOF.Recombine.Quality:0                ; no slight out of focus]]
[2021.07.25-21.42.07:836][  0]LogConfig: Setting CVar [[r.DOF.TemporalAAQuality:0                ; faster temporal accumulation]]
[2021.07.25-21.42.07:836][  0]LogConfig: Setting CVar [[r.DOF.Kernel.MaxForegroundRadius:0.012   ; required because of AccumulatorQuality=0]]
[2021.07.25-21.42.07:836][  0]LogConfig: Setting CVar [[r.DOF.Kernel.MaxBackgroundRadius:0.012   ; required because of AccumulatorQuality=0]]
[2021.07.25-21.42.07:836][  0]LogConfig: Applying CVar settings from Section [TextureQuality@2] File [E:/GitHub/senior_design_backup/Template/Saved/Config/Windows/Scalability.ini]
[2021.07.25-21.42.07:836][  0]LogConfig: Setting CVar [[r.Streaming.MipBias:0]]
[2021.07.25-21.42.07:836][  0]LogConfig: Setting CVar [[r.Streaming.AmortizeCPUToGPUCopy:0]]
[2021.07.25-21.42.07:836][  0]LogConfig: Setting CVar [[r.Streaming.MaxNumTexturesToStreamPerFrame:0]]
[2021.07.25-21.42.07:836][  0]LogConfig: Setting CVar [[r.Streaming.Boost:1]]
[2021.07.25-21.42.07:836][  0]LogConfig: Setting CVar [[r.MaxAnisotropy:4]]
[2021.07.25-21.42.07:836][  0]LogConfig: Setting CVar [[r.VT.MaxAnisotropy:8]]
[2021.07.25-21.42.07:836][  0]LogConfig: Setting CVar [[r.Streaming.LimitPoolSizeToVRAM:1]]
[2021.07.25-21.42.07:836][  0]LogConfig: Setting CVar [[r.Streaming.PoolSize:800]]
[2021.07.25-21.42.07:836][  0]LogConfig: Setting CVar [[r.Streaming.MaxEffectiveScreenSize:0]]
[2021.07.25-21.42.07:836][  0]LogConfig: Applying CVar settings from Section [EffectsQuality@2] File [E:/GitHub/senior_design_backup/Template/Saved/Config/Windows/Scalability.ini]
[2021.07.25-21.42.07:836][  0]LogConfig: Setting CVar [[r.TranslucencyLightingVolumeDim:48]]
[2021.07.25-21.42.07:836][  0]LogConfig: Setting CVar [[r.RefractionQuality:2]]
[2021.07.25-21.42.07:836][  0]LogConfig: Setting CVar [[r.SSR.Quality:2]]
[2021.07.25-21.42.07:836][  0]LogConfig: Setting CVar [[r.SSR.HalfResSceneColor:1]]
[2021.07.25-21.42.07:836][  0]LogConfig: Setting CVar [[r.SceneColorFormat:3]]
[2021.07.25-21.42.07:836][  0]LogConfig: Setting CVar [[r.DetailMode:1]]
[2021.07.25-21.42.07:836][  0]LogConfig: Setting CVar [[r.TranslucencyVolumeBlur:1]]
[2021.07.25-21.42.07:836][  0]LogConfig: Setting CVar [[r.MaterialQualityLevel:1 ; High quality]]
[2021.07.25-21.42.07:836][  0]LogConfig: Setting CVar [[r.SSS.Scale:1]]
[2021.07.25-21.42.07:836][  0]LogConfig: Setting CVar [[r.SSS.SampleSet:1]]
[2021.07.25-21.42.07:836][  0]LogConfig: Setting CVar [[r.SSS.Quality:-1]]
[2021.07.25-21.42.07:836][  0]LogConfig: Setting CVar [[r.SSS.HalfRes:1]]
[2021.07.25-21.42.07:836][  0]LogConfig: Setting CVar [[r.SSGI.Quality:2]]
[2021.07.25-21.42.07:836][  0]LogConfig: Setting CVar [[r.EmitterSpawnRateScale:0.5]]
[2021.07.25-21.42.07:836][  0]LogConfig: Setting CVar [[r.ParticleLightQuality:1]]
[2021.07.25-21.42.07:836][  0]LogConfig: Setting CVar [[r.SkyAtmosphere.AerialPerspectiveLUT.FastApplyOnOpaque:1 ; Always have FastSkyLUT 1 in this case to avoid wrong sky]]
[2021.07.25-21.42.07:836][  0]LogConfig: Setting CVar [[r.SkyAtmosphere.AerialPerspectiveLUT.SampleCountPerSlice:1]]
[2021.07.25-21.42.07:836][  0]LogConfig: Setting CVar [[r.SkyAtmosphere.AerialPerspectiveLUT.DepthResolution:16.0]]
[2021.07.25-21.42.07:836][  0]LogConfig: Setting CVar [[r.SkyAtmosphere.FastSkyLUT:1]]
[2021.07.25-21.42.07:836][  0]LogConfig: Setting CVar [[r.SkyAtmosphere.FastSkyLUT.SampleCountMin:4.0]]
[2021.07.25-21.42.07:836][  0]LogConfig: Setting CVar [[r.SkyAtmosphere.FastSkyLUT.SampleCountMax:32.0]]
[2021.07.25-21.42.07:836][  0]LogConfig: Setting CVar [[r.SkyAtmosphere.SampleCountMin:4.0]]
[2021.07.25-21.42.07:836][  0]LogConfig: Setting CVar [[r.SkyAtmosphere.SampleCountMax:32.0]]
[2021.07.25-21.42.07:837][  0]LogConfig: Setting CVar [[r.SkyAtmosphere.TransmittanceLUT.UseSmallFormat:0]]
[2021.07.25-21.42.07:837][  0]LogConfig: Setting CVar [[r.SkyAtmosphere.TransmittanceLUT.SampleCount:10.0]]
[2021.07.25-21.42.07:837][  0]LogConfig: Setting CVar [[r.SkyAtmosphere.MultiScatteringLUT.SampleCount:15.0]]
[2021.07.25-21.42.07:837][  0]LogConfig: Applying CVar settings from Section [FoliageQuality@2] File [E:/GitHub/senior_design_backup/Template/Saved/Config/Windows/Scalability.ini]
[2021.07.25-21.42.07:837][  0]LogConfig: Setting CVar [[foliage.DensityScale:0.8]]
[2021.07.25-21.42.07:837][  0]LogConfig: Setting CVar [[grass.DensityScale:0.8]]
[2021.07.25-21.42.07:837][  0]LogConfig: Applying CVar settings from Section [ShadingQuality@2] File [E:/GitHub/senior_design_backup/Template/Saved/Config/Windows/Scalability.ini]
[2021.07.25-21.42.07:837][  0]LogConfig: Setting CVar [[r.HairStrands.SkyLighting.SampleCount:16]]
[2021.07.25-21.42.07:837][  0]LogConfig: Setting CVar [[r.HairStrands.SkyLighting.JitterIntegration:0]]
[2021.07.25-21.42.07:837][  0]LogConfig: Setting CVar [[r.HairStrands.SkyAO.SampleCount:16]]
[2021.07.25-21.42.07:837][  0]LogConfig: Setting CVar [[r.HairStrands.DeepShadow.SuperSampling:0]]
[2021.07.25-21.42.07:837][  0]LogConfig: Setting CVar [[r.HairStrands.VisibilityPPLL:0]]
[2021.07.25-21.42.07:837][  0]LogConfig: Setting CVar [[r.HairStrands.RasterizationScale:0.5]]
[2021.07.25-21.42.07:837][  0]LogConfig: Setting CVar [[r.HairStrands.VelocityRasterizationScale:1]]
[2021.07.25-21.42.07:837][  0]LogConfig: Applying CVar settings from Section [Startup] File [../../../Engine/Config/ConsoleVariables.ini]
[2021.07.25-21.42.07:837][  0]LogConfig: Setting CVar [[net.UseAdaptiveNetUpdateFrequency:0]]
[2021.07.25-21.42.07:837][  0]LogConfig: Setting CVar [[p.chaos.AllowCreatePhysxBodies:1]]
[2021.07.25-21.42.07:837][  0]LogConfig: Setting CVar [[fx.SkipVectorVMBackendOptimizations:1]]
[2021.07.25-21.42.07:837][  0]LogConfig: Applying CVar settings from Section [ConsoleVariables] File [E:/GitHub/senior_design_backup/Template/Saved/Config/Windows/Engine.ini]
[2021.07.25-21.42.07:838][  0]LogInit: Computer: DESKTOP-FVIN7V9
[2021.07.25-21.42.07:838][  0]LogInit: User: touch
[2021.07.25-21.42.07:838][  0]LogInit: CPU Page size=4096, Cores=8
[2021.07.25-21.42.07:838][  0]LogInit: High frequency timer resolution =10.000000 MHz
[2021.07.25-21.42.07:839][  0]LogMemory: Memory total: Physical=15.9GB (16GB approx)
[2021.07.25-21.42.07:839][  0]LogMemory: Platform Memory Stats for Windows
[2021.07.25-21.42.07:839][  0]LogMemory: Process Physical Memory: 109.29 MB used, 109.30 MB peak
[2021.07.25-21.42.07:839][  0]LogMemory: Process Virtual Memory: 103.17 MB used, 103.17 MB peak
[2021.07.25-21.42.07:839][  0]LogMemory: Physical Memory: 9932.77 MB used,  6381.97 MB free, 16314.75 MB total
[2021.07.25-21.42.07:839][  0]LogMemory: Virtual Memory: 5224.63 MB used,  134212504.00 MB free, 134217728.00 MB total
[2021.07.25-21.42.07:846][  0]LogWindows: WindowsPlatformFeatures enabled
[2021.07.25-21.42.07:989][  0]LogInit: Physics initialised using underlying interface: PhysX
[2021.07.25-21.42.07:991][  0]LogInit: Using OS detected language (en-US).
[2021.07.25-21.42.07:991][  0]LogInit: Using OS detected locale (en-US).
[2021.07.25-21.42.07:993][  0]LogTextLocalizationManager: No specific localization for 'en-US' exists, so the 'en' localization will be used.
[2021.07.25-21.42.08:272][  0]LogInit: Setting process to per monitor DPI aware
[2021.07.25-21.42.08:330][  0]LogSlate: New Slate User Created.  User Index 0, Is Virtual User: 0
[2021.07.25-21.42.08:330][  0]LogSlate: Slate User Registered.  User Index 0, Is Virtual User: 0
[2021.07.25-21.42.08:647][  0]LogD3D11RHI: D3D11 min allowed feature level: 11_0
[2021.07.25-21.42.08:647][  0]LogD3D11RHI: D3D11 max allowed feature level: 11_0
[2021.07.25-21.42.08:647][  0]LogD3D11RHI: D3D11 adapters:
[2021.07.25-21.42.08:757][  0]LogD3D11RHI:    0. 'NVIDIA GeForce GTX 1070' (Feature Level 11_0)
[2021.07.25-21.42.08:757][  0]LogD3D11RHI:       8088/0/8157 MB DedicatedVideo/DedicatedSystem/SharedSystem, Outputs:3, VendorId:0x10de
[2021.07.25-21.42.08:762][  0]LogD3D11RHI:    1. 'Microsoft Basic Render Driver' (Feature Level 11_0)
[2021.07.25-21.42.08:762][  0]LogD3D11RHI:       0/0/8157 MB DedicatedVideo/DedicatedSystem/SharedSystem, Outputs:0, VendorId:0x1414
[2021.07.25-21.42.08:762][  0]LogD3D11RHI: Chosen D3D11 Adapter: 0
[2021.07.25-21.42.08:777][  0]LogD3D11RHI: Creating new Direct3DDevice
[2021.07.25-21.42.08:777][  0]LogD3D11RHI:     GPU DeviceId: 0x1b81 (for the marketing name, search the web for "GPU Device Id")
[2021.07.25-21.42.08:777][  0]LogWindows: EnumDisplayDevices:
[2021.07.25-21.42.08:777][  0]LogWindows:    0. 'NVIDIA GeForce GTX 1070' (P:0 D:1)
[2021.07.25-21.42.08:777][  0]LogWindows:    1. 'NVIDIA GeForce GTX 1070' (P:0 D:1)
[2021.07.25-21.42.08:778][  0]LogWindows:    2. 'NVIDIA GeForce GTX 1070' (P:1 D:1)
[2021.07.25-21.42.08:778][  0]LogWindows:    3. 'NVIDIA GeForce GTX 1070' (P:0 D:0)
[2021.07.25-21.42.08:778][  0]LogWindows: DebugString: FoundDriverCount:4 
[2021.07.25-21.42.08:778][  0]LogD3D11RHI:     Adapter Name: NVIDIA GeForce GTX 1070
[2021.07.25-21.42.08:778][  0]LogD3D11RHI:   Driver Version: 466.77 (internal:27.21.14.6677, unified:466.77)
[2021.07.25-21.42.08:778][  0]LogD3D11RHI:      Driver Date: 6-8-2021
[2021.07.25-21.42.08:778][  0]LogRHI: Texture pool is 5661 MB (70% of 8088 MB)
[2021.07.25-21.42.08:867][  0]LogD3D11RHI: RHI has support for 64 bit atomics
[2021.07.25-21.42.08:868][  0]LogD3D11RHI: Async texture creation enabled
[2021.07.25-21.42.08:868][  0]LogD3D11RHI: Array index from any shader is supported
[2021.07.25-21.42.08:912][  0]LogD3D11RHI: GPU Timing Frequency: 1000.000000 (Debug: 2 1)
[2021.07.25-21.42.09:515][  0]LogTargetPlatformManager: Display: Loaded TargetPlatform 'AllDesktop'
[2021.07.25-21.42.09:539][  0]LogTargetPlatformManager: Display: Loaded TargetPlatform 'Android'
[2021.07.25-21.42.09:539][  0]LogTargetPlatformManager: Display: Loaded TargetPlatform 'Android_ASTC'
[2021.07.25-21.42.09:539][  0]LogTargetPlatformManager: Display: Loaded TargetPlatform 'Android_DXT'
[2021.07.25-21.42.09:539][  0]LogTargetPlatformManager: Display: Loaded TargetPlatform 'Android_ETC2'
[2021.07.25-21.42.09:540][  0]LogTargetPlatformManager: Display: Loaded TargetPlatform 'AndroidClient'
[2021.07.25-21.42.09:540][  0]LogTargetPlatformManager: Display: Loaded TargetPlatform 'Android_ASTCClient'
[2021.07.25-21.42.09:540][  0]LogTargetPlatformManager: Display: Loaded TargetPlatform 'Android_DXTClient'
[2021.07.25-21.42.09:540][  0]LogTargetPlatformManager: Display: Loaded TargetPlatform 'Android_ETC2Client'
[2021.07.25-21.42.09:540][  0]LogTargetPlatformManager: Display: Loaded TargetPlatform 'Android_Multi'
[2021.07.25-21.42.09:540][  0]LogTargetPlatformManager: Display: Loaded TargetPlatform 'Android_MultiClient'
[2021.07.25-21.42.09:573][  0]LogTargetPlatformManager: Display: Loaded TargetPlatform 'IOSClient'
[2021.07.25-21.42.09:574][  0]LogTargetPlatformManager: Display: Loaded TargetPlatform 'IOS'
[2021.07.25-21.42.09:603][  0]LogTargetPlatformManager: Display: Loaded TargetPlatform 'Lumin'
[2021.07.25-21.42.09:603][  0]LogTargetPlatformManager: Display: Loaded TargetPlatform 'LuminClient'
[2021.07.25-21.42.09:621][  0]LogTargetPlatformManager: Display: Loaded TargetPlatform 'TVOSClient'
[2021.07.25-21.42.09:621][  0]LogTargetPlatformManager: Display: Loaded TargetPlatform 'TVOS'
[2021.07.25-21.42.09:632][  0]LogTargetPlatformManager: Display: Loaded TargetPlatform 'WindowsNoEditor'
[2021.07.25-21.42.09:644][  0]LogTargetPlatformManager: Display: Loaded TargetPlatform 'Windows'
[2021.07.25-21.42.09:655][  0]LogTargetPlatformManager: Display: Loaded TargetPlatform 'WindowsClient'
[2021.07.25-21.42.09:665][  0]LogTargetPlatformManager: Display: Loaded TargetPlatform 'WindowsServer'
[2021.07.25-21.42.09:665][  0]LogTargetPlatformManager: Display: Building Assets For Windows
[2021.07.25-21.42.09:681][  0]LogAudioDebug: Display: Lib vorbis DLL was dynamically loaded.
[2021.07.25-21.42.09:790][  0]LogShaderCompilers: Guid format shader working directory is 4 characters bigger than the processId version (../../../../senior_design_backup/Template/Intermediate/Shaders/WorkingDirectory/60424/).
[2021.07.25-21.42.09:790][  0]LogShaderCompilers: Cleaned the shader compiler working directory 'C:/Users/touch/AppData/Local/Temp/UnrealShaderWorkingDir/E0A9B46748D41D3EC4DE2AB2F0A24E45/'.
[2021.07.25-21.42.09:792][  0]LogXGEController: Cleaning working directory: C:/Users/touch/AppData/Local/Temp/UnrealXGEWorkingDir/
[2021.07.25-21.42.09:792][  0]LogXGEController: Cannot use XGE Controller as Incredibuild is not installed on this machine.
[2021.07.25-21.42.09:792][  0]LogShaderCompilers: Cannot use XGE Shader Compiler as Incredibuild is not installed on this machine.
[2021.07.25-21.42.09:792][  0]LogShaderCompilers: Display: Using Local Shader Compiler.
[2021.07.25-21.42.10:729][  0]LogDerivedDataCache: Display: Max Cache Size: 512 MB
[2021.07.25-21.42.10:802][  0]LogDerivedDataCache: Loaded boot cache 0.07s 97MB ../../../../senior_design_backup/Template/DerivedDataCache/Boot.ddc.
[2021.07.25-21.42.10:802][  0]LogDerivedDataCache: Display: Loaded Boot cache: ../../../../senior_design_backup/Template/DerivedDataCache/Boot.ddc
[2021.07.25-21.42.10:802][  0]LogDerivedDataCache: FDerivedDataBackendGraph:  Pak pak cache file ../../../../senior_design_backup/Template/DerivedDataCache/DDC.ddp not found, will not use a pak cache.
[2021.07.25-21.42.10:802][  0]LogDerivedDataCache: Unable to find inner node Pak for hierarchical cache Hierarchy.
[2021.07.25-21.42.10:802][  0]LogDerivedDataCache: FDerivedDataBackendGraph:  EnginePak pak cache file ../../../Engine/DerivedDataCache/DDC.ddp not found, will not use a pak cache.
[2021.07.25-21.42.10:802][  0]LogDerivedDataCache: Unable to find inner node EnginePak for hierarchical cache Hierarchy.
[2021.07.25-21.42.10:803][  0]LogDerivedDataCache: Using Local data cache path ../../../Engine/DerivedDataCache: Writable
[2021.07.25-21.42.10:803][  0]LogDerivedDataCache: Shared data cache path not found in *engine.ini, will not use an Shared cache.
[2021.07.25-21.42.10:803][  0]LogDerivedDataCache: Unable to find inner node Shared for hierarchical cache Hierarchy.
[2021.07.25-21.42.10:854][  0]LogSlate: Using FreeType 2.10.0
[2021.07.25-21.42.10:856][  0]LogSlate: SlateFontServices - WITH_FREETYPE: 1, WITH_HARFBUZZ: 1
[2021.07.25-21.42.10:893][  0]LogAssetRegistry: FAssetRegistry took 0.0028 seconds to start up
[2021.07.25-21.42.11:213][  0]LogInit: Selected Device Profile: [Windows]
[2021.07.25-21.42.11:375][  0]LogMeshReduction: Using QuadricMeshReduction for automatic static mesh reduction
[2021.07.25-21.42.11:375][  0]LogMeshReduction: Using SimplygonMeshReduction for automatic skeletal mesh reduction
[2021.07.25-21.42.11:375][  0]LogMeshReduction: Using ProxyLODMeshReduction for automatic mesh merging
[2021.07.25-21.42.11:375][  0]LogMeshReduction: No distributed automatic mesh merging module available
[2021.07.25-21.42.11:376][  0]LogMeshMerging: No distributed automatic mesh merging module available
[2021.07.25-21.42.11:404][  0]LogNetVersion: UE4_OpenCV 1.0.0, NetCL: 0, EngineNetVer: 14, GameNetVer: 0 (Checksum: 2496651142)
[2021.07.25-21.42.11:985][  0]LogAISub: UAISubsystem::UAISubsystem AISubsystem (000002638A825400), frame # 0
[2021.07.25-21.42.11:985][  0]LogAISub: UAISubsystem::UAISubsystem AIPerceptionSystem (000002638A7A4900), frame # 0
[2021.07.25-21.42.11:987][  0]LogAISub: UAISubsystem::UAISubsystem EnvQueryManager (000002638A7DC600), frame # 0
[2021.07.25-21.42.12:059][  0]LogPackageLocalizationCache: Processed 20 localized package path(s) for 1 prioritized culture(s) in 0.055784 seconds
[2021.07.25-21.42.12:065][  0]LogUObjectArray: 15801 objects as part of root set at end of initial load.
[2021.07.25-21.42.12:065][  0]LogUObjectAllocator: 3934656 out of 0 bytes used by permanent object pool.
[2021.07.25-21.42.12:065][  0]LogUObjectArray: CloseDisregardForGC: 0/0 objects in disregard for GC pool
[2021.07.25-21.42.12:831][  0]LogTcpMessaging: Initializing TcpMessaging bridge
[2021.07.25-21.42.12:838][  0]LogUdpMessaging: Initializing bridge on interface 0.0.0.0:0 to multicast group 230.0.0.1:6666.
[2021.07.25-21.42.13:054][  0]SourceControl: Source control is disabled
[2021.07.25-21.42.13:054][  0]SourceControl: Source control is disabled
[2021.07.25-21.42.13:067][  0]SourceControl: Source control is disabled
[2021.07.25-21.42.13:073][  0]SourceControl: Source control is disabled
[2021.07.25-21.42.13:086][  0]SourceControl: Source control is disabled
[2021.07.25-21.42.13:544][  0]LogAndroidPermission: UAndroidPermissionCallbackProxy::GetInstance
[2021.07.25-21.42.13:579][  0]LogAudioCaptureCore: Display: No Audio Capture implementations found. Audio input will be silent.
[2021.07.25-21.42.13:579][  0]LogAudioCaptureCore: Display: No Audio Capture implementations found. Audio input will be silent.
[2021.07.25-21.42.13:662][  0]LogOcInput: OculusInput pre-init called
[2021.07.25-21.42.13:925][  0]LogWindows: Failed to load '../../../Engine/Binaries/ThirdParty/LeapMotion/Win64/LeapC.dll' (GetLastError=126)
[2021.07.25-21.42.13:925][  0]LogWindows: File '../../../Engine/Binaries/ThirdParty/LeapMotion/Win64/LeapC.dll' does not exist
[2021.07.25-21.42.13:925][  0]LeapMotionLog: Leap Plugin started v3.6
[2021.07.25-21.42.16:190][  0]LogWindowsTextInputMethodSystem: Display: IME system now deactivated.
[2021.07.25-21.42.16:287][  0]LogClass: Warning: ObjectProperty FMappedBoneAnimData::BodyStateSkeleton is not initialized properly
[2021.07.25-21.42.16:287][  0]LogClass: Warning: FBodyStateDeviceConfig::InputType is not initialized properly
[2021.07.25-21.42.16:287][  0]LogClass: Warning: FLeapStats::FrameExtrapolationInMS is not initialized properly
[2021.07.25-21.42.16:288][  0]LogClass: Display: 3 Uninitialized script stuct members found
[2021.07.25-21.42.16:290][  0]LogAutomationTest: Warning: ObjectProperty FMappedBoneAnimData::BodyStateSkeleton is not initialized properly
[2021.07.25-21.42.16:290][  0]LogAutomationTest: Warning: FBodyStateDeviceConfig::InputType is not initialized properly
[2021.07.25-21.42.16:290][  0]LogAutomationTest: Warning: FLeapStats::FrameExtrapolationInMS is not initialized properly
[2021.07.25-21.42.16:291][  0]LogEngine: Initializing Engine...
[2021.07.25-21.42.16:292][  0]LogMagicLeap: Warning: VR disabled because ZI is not enabled.  To enable, in the editor, Edit -> Project Settings -> Plugins -> Magic Leap Plugin -> Enable Zero Iteration
[2021.07.25-21.42.16:294][  0]LogStats: UGameplayTagsManager::InitializeManager -  0.001 s
[2021.07.25-21.42.16:436][  0]LogInit: Initializing FReadOnlyCVARCache
[2021.07.25-21.42.16:456][  0]LogAIModule: Creating AISystem for world Untitled
[2021.07.25-21.42.16:456][  0]LogAISub: UAISubsystem::UAISubsystem EnvQueryManager (000002638E974A00), frame # 0
[2021.07.25-21.42.16:456][  0]LogAISub: UAISubsystem::UAISubsystem AIPerceptionSystem (000002638E963100), frame # 0
[2021.07.25-21.42.16:465][  0]LogAudioMixer: Display: Audio Mixer Platform Settings:
[2021.07.25-21.42.16:465][  0]LogAudioMixer: Display: 	Sample Rate:						  48000
[2021.07.25-21.42.16:465][  0]LogAudioMixer: Display: 	Callback Buffer Frame Size Requested: 1024
[2021.07.25-21.42.16:465][  0]LogAudioMixer: Display: 	Callback Buffer Frame Size To Use:	  1024
[2021.07.25-21.42.16:465][  0]LogAudioMixer: Display: 	Number of buffers to queue:			  2
[2021.07.25-21.42.16:465][  0]LogAudioMixer: Display: 	Max Channels (voices):				  32
[2021.07.25-21.42.16:465][  0]LogAudioMixer: Display: 	Number of Async Source Workers:		  0
[2021.07.25-21.42.16:465][  0]LogAudio: Display: AudioDevice MaxSources: 32
[2021.07.25-21.42.16:465][  0]LogAudio: Display: Using built-in audio occlusion.
[2021.07.25-21.42.16:465][  0]LogAudioMixer: Display: Initializing audio mixer.
[2021.07.25-21.42.16:492][  0]LogAudioMixer: Display: 0: FrontLeft
[2021.07.25-21.42.16:492][  0]LogAudioMixer: Display: 1: FrontRight
[2021.07.25-21.42.16:566][  0]LogAudioMixer: Display: Using Audio Device Headphones (Razer Nari Ultimate - Game)
[2021.07.25-21.42.16:572][  0]LogAudioMixer: Display: Initializing Sound Submixes...
[2021.07.25-21.42.16:575][  0]LogAudioMixer: Display: Creating Master Submix 'MasterSubmixDefault'
[2021.07.25-21.42.16:575][  0]LogAudioMixer: Display: Creating Master Submix 'MasterReverbSubmixDefault'
[2021.07.25-21.42.16:576][  0]LogAudioMixer: Display: Creating Master Submix 'MasterEQSubmixDefault'
[2021.07.25-21.42.16:576][  0]LogAudioMixer: FMixerPlatformXAudio2::StartAudioStream() called
[2021.07.25-21.42.16:576][  0]LogAudioMixer: Display: Output buffers initialized: Frames=1024, Channels=2, Samples=2048
[2021.07.25-21.42.16:578][  0]LogAudioMixer: Display: Starting AudioMixerPlatformInterface::RunInternal()
[2021.07.25-21.42.16:578][  0]LogAudioMixer: Display: FMixerPlatformXAudio2::SubmitBuffer() called for the first time
[2021.07.25-21.42.16:578][  0]LogInit: FAudioDevice initialized.
[2021.07.25-21.42.16:579][  0]LogNetVersion: Set ProjectVersion to 1.0.0.0. Version Checksum will be recalculated on next use.
[2021.07.25-21.42.16:697][  0]LogDerivedDataCache: Saved boot cache 0.12s 79MB ../../../../senior_design_backup/Template/DerivedDataCache/Boot.ddc.
[2021.07.25-21.42.16:701][  0]LogInit: Texture streaming: Enabled
[2021.07.25-21.42.16:748][  0]LogEngineSessionManager: EngineSessionManager initialized
[2021.07.25-21.42.16:748][  0]LogEditorSessionSummary: Verbose: Initializing EditorSessionSummaryWriter for editor session tracking
[2021.07.25-21.42.16:750][  0]LogEditorSessionSummary: EditorSessionSummaryWriter initialized
[2021.07.25-21.42.16:813][  0]LogInit: Transaction tracking system initialized
[2021.07.25-21.42.16:865][  0]BlueprintLog: New page: Editor Load
[2021.07.25-21.42.17:023][  0]LocalizationService: Localization service is disabled
[2021.07.25-21.42.17:301][  0]LogCook: Display: Max memory allowance for cook 16384mb min free memory 0mb
[2021.07.25-21.42.17:301][  0]LogCook: Display: Mobile HDR setting 1
[2021.07.25-21.42.17:605][  0]LogFileCache: Scanning file cache for directory 'E:/GitHub/senior_design_backup/Template/Content/' took 0.01s
[2021.07.25-21.42.17:606][  0]SourceControl: Source control is disabled
[2021.07.25-21.42.17:606][  0]LogUnrealEdMisc: Loading editor; pre map load, took 13.034
[2021.07.25-21.42.17:606][  0]Cmd: MAP LOAD FILE="../../../../senior_design_backup/Template/Content/Maps-Levels/Maps/MainMenu/AnimatedLoadingPers.umap" TEMPLATE=0 SHOWPROGRESS=1 FEATURELEVEL=3
[2021.07.25-21.42.17:607][  0]LightingResults: New page: Lighting Build
[2021.07.25-21.42.17:610][  0]LogWorld: UWorld::CleanupWorld for Untitled, bSessionEnded=true, bCleanupResources=true
[2021.07.25-21.42.17:610][  0]LogSlate: InvalidateAllWidgets triggered.  All widgets were invalidated
[2021.07.25-21.42.17:610][  0]MapCheck: New page: Map Check
[2021.07.25-21.42.17:610][  0]LightingResults: New page: Lighting Build
[2021.07.25-21.42.17:624][  0]LogAISub: UAISubsystem::~UAISubsystem EnvQueryManager (000002638E974A00), frame # 0
[2021.07.25-21.42.17:624][  0]LogAISub: UAISubsystem::~UAISubsystem AIPerceptionSystem (000002638E963100), frame # 0
[2021.07.25-21.42.17:625][  0]LogUObjectHash: Compacting FUObjectHashTables data took   0.69ms
[2021.07.25-21.42.17:894][  0]LogAIModule: Creating AISystem for world AnimatedLoadingPers
[2021.07.25-21.42.17:894][  0]LogAISub: UAISubsystem::UAISubsystem EnvQueryManager (000002639E3CB800), frame # 0
[2021.07.25-21.42.17:894][  0]LogAISub: UAISubsystem::UAISubsystem AIPerceptionSystem (000002638F0C3380), frame # 0
[2021.07.25-21.42.17:900][  0]LogStreaming: Display: ULevelStreaming::RequestLevel(/Game/Maps-Levels/Maps/MainMenu/AnimatedLoadingMap1) is flushing async loading
[2021.07.25-21.42.17:900][  0]LogStreaming: Display: FlushAsyncLoading: 1 QueuedPackages, 0 AsyncPackages
[2021.07.25-21.42.17:950][  0]LogStreaming: Display: ULevelStreaming::RequestLevel(/Game/Maps-Levels/Maps/MainMenu/AnimatedLoadingLoadingScreen) is flushing async loading
[2021.07.25-21.42.17:966][  0]LogStreaming: Display: ULevelStreaming::RequestLevel(/Game/Maps-Levels/Maps/MainMenu/AnimatedLoadingMainMenu) is flushing async loading
[2021.07.25-21.42.17:972][  0]LogBlueprint: Warning: [Compiler PersistentLevel.AnimatedLoadingMainMenu] Set Input Mode UI Only (Deprecated) : Usage of 'Set Input Mode UI Only (Deprecated)' has been deprecated. Use the new version of Set Input Mode UI Only instead
[2021.07.25-21.42.17:975][  0]LogStreaming: Display: ULevelStreaming::RequestLevel(/Game/Maps-Levels/Maps/MainMenu/AnimatedLoadingSplashScreen) is flushing async loading
[2021.07.25-21.42.17:981][  0]LogStreaming: Display: ULevelStreaming::RequestLevel(/Game/Maps-Levels/Maps/MainMenu/AnimatedLoadingMap2) is flushing async loading
[2021.07.25-21.42.17:999][  0]LogEditorServer: Finished looking for orphan Actors (0.000 secs)
[2021.07.25-21.42.18:016][  0]LogUObjectHash: Compacting FUObjectHashTables data took   0.82ms
[2021.07.25-21.42.18:016][  0]Cmd: MAP CHECKDEP NOCLEARLOG
[2021.07.25-21.42.18:017][  0]MapCheck: Map check complete: 0 Error(s), 0 Warning(s), took 0.264ms to complete.
[2021.07.25-21.42.18:017][  0]LogFileHelpers: Loading map 'AnimatedLoadingPers' took 0.411
[2021.07.25-21.42.18:020][  0]LogUnrealEdMisc: Total Editor Startup Time, took 13.447
[2021.07.25-21.42.18:097][  0]LogWindowsTextInputMethodSystem: Display: IME system now deactivated.
[2021.07.25-21.42.18:161][  0]LogSlate: Updating window title bar state: overlay mode, drag disabled, window buttons hidden, title bar hidden
[2021.07.25-21.42.18:170][  0]LogSlate: Updating window title bar state: overlay mode, drag disabled, window buttons hidden, title bar hidden
[2021.07.25-21.42.18:177][  0]LogSlate: Updating window title bar state: overlay mode, drag disabled, window buttons hidden, title bar hidden
[2021.07.25-21.42.18:184][  0]LogSlate: Updating window title bar state: overlay mode, drag disabled, window buttons hidden, title bar hidden
[2021.07.25-21.42.18:193][  0]LogCollectionManager: Loaded 0 collections in 0.000832 seconds
[2021.07.25-21.42.18:215][  0]LogFileCache: Scanning file cache for directory 'E:/GitHub/senior_design_backup/Template/Saved/Collections/' took 0.00s
[2021.07.25-21.42.18:215][  0]LogFileCache: Scanning file cache for directory 'E:/GitHub/senior_design_backup/Template/Content/Developers/touch/Collections/' took 0.00s
[2021.07.25-21.42.18:215][  0]LogFileCache: Scanning file cache for directory 'E:/GitHub/senior_design_backup/Template/Content/Collections/' took 0.00s
[2021.07.25-21.42.18:215][  0]LogContentBrowser: Native class hierarchy populated in 0.0139 seconds. Added 3435 classes and 823 folders.
[2021.07.25-21.42.18:221][  0]LogContentBrowser: Native class hierarchy updated for 'WidgetCarousel' in 0.0004 seconds. Added 0 classes and 0 folders.
[2021.07.25-21.42.18:406][  0]LogContentBrowser: Native class hierarchy updated for 'AddContentDialog' in 0.0004 seconds. Added 0 classes and 0 folders.
[2021.07.25-21.42.18:411][  0]LogContentBrowser: Native class hierarchy updated for 'SceneOutliner' in 0.0004 seconds. Added 2 classes and 0 folders.
[2021.07.25-21.42.18:449][  0]LogSlate: Took 0.001635 seconds to synchronously load lazily loaded font '../../../Engine/Content/Slate/Fonts/Roboto-Regular.ttf' (155K)
[2021.07.25-21.42.18:453][  0]LogSlate: Took 0.001641 seconds to synchronously load lazily loaded font '../../../Engine/Content/Slate/Fonts/Roboto-Bold.ttf' (160K)
[2021.07.25-21.42.18:459][  0]LogSlate: Took 0.001309 seconds to synchronously load lazily loaded font '../../../Engine/Content/Editor/Slate/Fonts/FontAwesome.ttf' (139K)
[2021.07.25-21.42.18:560][  0]LogRenderer: Reallocating scene render targets to support 1424x808 Format 9 NumSamples 1 (Frame:1).
[2021.07.25-21.42.18:690][  0]LogContentBrowser: Native class hierarchy updated for 'HierarchicalLODOutliner' in 0.0005 seconds. Added 0 classes and 0 folders.
[2021.07.25-21.42.18:690][  0]LogLoad: (Engine Initialization) Total time: 14.12 seconds
[2021.07.25-21.42.18:690][  0]LogLoad: (Engine Initialization) Total Blueprint compile time: 0.00 seconds
[2021.07.25-21.42.18:704][  0]LeapMotionLog: ServiceMessageLoop started.
[2021.07.25-21.42.18:704][  0]BodyStateLog: BodyState::DeviceAttached: Leap Motion (1)
[2021.07.25-21.42.18:704][  0]BodyStateLog: BodyState::DeviceAttached: HMD (2)
[2021.07.25-21.42.18:752][  0]LogAssetRegistry: Asset discovery search completed in 7.8601 seconds
[2021.07.25-21.42.18:756][  0]LogCollectionManager: Fixed up redirectors for 0 collections in 0.000001 seconds (updated 0 objects)
[2021.07.25-21.42.18:757][  0]LogContentStreaming: Texture pool size now 800 MB
[2021.07.25-21.42.19:055][  1]LeapMotionLog: LeapService: OnConnect.
[2021.07.25-21.42.19:055][  1]LeapMotionLog: OnDeviceFound Peripheral S324A010887.
[2021.07.25-21.42.28:314][266]LogSlate: Took 0.003664 seconds to synchronously load lazily loaded font '../../../Engine/Content/Slate/Fonts/Roboto-Light.ttf' (167K)
[2021.07.25-21.42.34:969][266]LogAssetEditorSubsystem: Opening Asset editor for World /Game/Maps-Levels/Maps/ChestMaster/ChestMaster.ChestMaster
[2021.07.25-21.42.35:029][266]LogUObjectHash: Compacting FUObjectHashTables data took   2.22ms
[2021.07.25-21.42.35:032][266]Cmd: MAP LOAD FILE="../../../../senior_design_backup/Template/Content/Maps-Levels/Maps/ChestMaster/ChestMaster.umap" TEMPLATE=0 SHOWPROGRESS=1 FEATURELEVEL=3
[2021.07.25-21.42.35:032][266]LightingResults: New page: Lighting Build
[2021.07.25-21.42.35:032][266]LoadErrors: New page: Loading map: ChestMaster.umap
[2021.07.25-21.42.35:069][266]LogWorld: UWorld::CleanupWorld for AnimatedLoadingPers, bSessionEnded=true, bCleanupResources=true
[2021.07.25-21.42.35:069][266]LogSlate: InvalidateAllWidgets triggered.  All widgets were invalidated
[2021.07.25-21.42.35:069][266]LogWorld: UWorld::CleanupWorld for AnimatedLoadingMap1, bSessionEnded=true, bCleanupResources=true
[2021.07.25-21.42.35:069][266]LogSlate: InvalidateAllWidgets triggered.  All widgets were invalidated
[2021.07.25-21.42.35:069][266]LogWorld: UWorld::CleanupWorld for AnimatedLoadingLoadingScreen, bSessionEnded=true, bCleanupResources=true
[2021.07.25-21.42.35:069][266]LogSlate: InvalidateAllWidgets triggered.  All widgets were invalidated
[2021.07.25-21.42.35:069][266]LogWorld: UWorld::CleanupWorld for AnimatedLoadingMainMenu, bSessionEnded=true, bCleanupResources=true
[2021.07.25-21.42.35:069][266]LogSlate: InvalidateAllWidgets triggered.  All widgets were invalidated
[2021.07.25-21.42.35:069][266]LogWorld: UWorld::CleanupWorld for AnimatedLoadingSplashScreen, bSessionEnded=true, bCleanupResources=true
[2021.07.25-21.42.35:069][266]LogSlate: InvalidateAllWidgets triggered.  All widgets were invalidated
[2021.07.25-21.42.35:069][266]LogWorld: UWorld::CleanupWorld for AnimatedLoadingMap2, bSessionEnded=true, bCleanupResources=true
[2021.07.25-21.42.35:069][266]LogSlate: InvalidateAllWidgets triggered.  All widgets were invalidated
[2021.07.25-21.42.35:069][266]MapCheck: New page: Map Check
[2021.07.25-21.42.35:069][266]LightingResults: New page: Lighting Build
[2021.07.25-21.42.35:085][266]LogAISub: UAISubsystem::~UAISubsystem EnvQueryManager (000002639E3CB800), frame # 266
[2021.07.25-21.42.35:085][266]LogAISub: UAISubsystem::~UAISubsystem AIPerceptionSystem (000002638F0C3380), frame # 266
[2021.07.25-21.42.35:087][266]LogUObjectHash: Compacting FUObjectHashTables data took   1.19ms
[2021.07.25-21.42.36:504][266]LogPhysics: Warning: Scale for /Game/Maps-Levels/Maps/ChestMaster/ChestMaster.ChestMaster:PersistentLevel.SM_Crate_2.StaticMeshComponent0 has a component set to zero, which will result in a bad body instance. Scale:X=0.000 Y=0.000 Z=0.000
[2021.07.25-21.42.36:504][266]LogPhysics: Warning: Initialising Body : Scale3D is (nearly) zero: Component: '/Game/Maps-Levels/Maps/ChestMaster/ChestMaster.ChestMaster:PersistentLevel.SM_Crate_2.StaticMeshComponent0' 
[2021.07.25-21.42.36:606][266]LogEditorServer: Finished looking for orphan Actors (0.000 secs)
[2021.07.25-21.42.36:606][266]LogAIModule: Creating AISystem for world ChestMaster
[2021.07.25-21.42.36:606][266]LogAISub: UAISubsystem::UAISubsystem EnvQueryManager (0000026407F6EE00), frame # 266
[2021.07.25-21.42.36:606][266]LogAISub: UAISubsystem::UAISubsystem AIPerceptionSystem (0000026408940B80), frame # 266
[2021.07.25-21.42.36:646][266]LogUObjectHash: Compacting FUObjectHashTables data took   0.88ms
[2021.07.25-21.42.36:661][266]Cmd: MAP CHECKDEP NOCLEARLOG
[2021.07.25-21.42.36:662][266]MapCheck: Map check complete: 0 Error(s), 0 Warning(s), took 0.442ms to complete.
[2021.07.25-21.42.36:662][266]LogFileHelpers: Loading map 'ChestMaster' took 1.630
[2021.07.25-21.42.36:871][266]LogUObjectHash: Compacting FUObjectHashTables data took   0.34ms
[2021.07.25-21.42.42:180][700]LogTemp: Repeating last play command: Selected Viewport
[2021.07.25-21.42.42:189][700]LogPlayLevel: PlayLevel: No blueprints needed recompiling
[2021.07.25-21.42.42:194][700]PIE: New page: PIE session: ChestMaster (Jul 25, 2021, 1:42:42 PM)
[2021.07.25-21.42.42:195][700]LogOnline: OSS: Creating online subsystem instance for: NULL
[2021.07.25-21.42.42:196][700]LogOnline: OSS: TryLoadSubsystemAndSetDefault: Loaded subsystem for module [NULL]
[2021.07.25-21.42.42:196][700]LogPlayLevel: Creating play world package: /Game/Maps-Levels/Maps/ChestMaster/UEDPIE_0_ChestMaster
[2021.07.25-21.42.42:665][700]LogPlayLevel: PIE: StaticDuplicateObject took: (0.469181s)
[2021.07.25-21.42.42:666][700]LogAIModule: Creating AISystem for world ChestMaster
[2021.07.25-21.42.42:666][700]LogAISub: UAISubsystem::UAISubsystem EnvQueryManager (00000263BFAB5400), frame # 700
[2021.07.25-21.42.42:666][700]LogAISub: UAISubsystem::UAISubsystem AIPerceptionSystem (00000263BC1F0680), frame # 700
[2021.07.25-21.42.42:667][700]LogPlayLevel: PIE: World Init took: (0.001680s)
[2021.07.25-21.42.42:667][700]LogPlayLevel: PIE: Created PIE world by copying editor world from /Game/Maps-Levels/Maps/ChestMaster/ChestMaster.ChestMaster to /Game/Maps-Levels/Maps/ChestMaster/UEDPIE_0_ChestMaster.ChestMaster (0.471318s)
[2021.07.25-21.42.42:680][700]LogUObjectHash: Compacting FUObjectHashTables data took   0.98ms
[2021.07.25-21.42.42:686][700]LogAudioMixer: Display: Audio Mixer Platform Settings:
[2021.07.25-21.42.42:686][700]LogAudioMixer: Display: 	Sample Rate:						  48000
[2021.07.25-21.42.42:686][700]LogAudioMixer: Display: 	Callback Buffer Frame Size Requested: 1024
[2021.07.25-21.42.42:686][700]LogAudioMixer: Display: 	Callback Buffer Frame Size To Use:	  1024
[2021.07.25-21.42.42:686][700]LogAudioMixer: Display: 	Number of buffers to queue:			  2
[2021.07.25-21.42.42:686][700]LogAudioMixer: Display: 	Max Channels (voices):				  32
[2021.07.25-21.42.42:686][700]LogAudioMixer: Display: 	Number of Async Source Workers:		  0
[2021.07.25-21.42.42:687][700]LogAudio: Display: AudioDevice MaxSources: 32
[2021.07.25-21.42.42:687][700]LogAudio: Display: Using built-in audio occlusion.
[2021.07.25-21.42.42:687][700]LogAudioMixer: Display: Initializing audio mixer.
[2021.07.25-21.42.42:693][700]LogAudioMixer: Display: 0: FrontLeft
[2021.07.25-21.42.42:693][700]LogAudioMixer: Display: 1: FrontRight
[2021.07.25-21.42.42:718][700]LogAudioMixer: Display: Using Audio Device Headphones (Razer Nari Ultimate - Game)
[2021.07.25-21.42.42:718][700]LogAudioMixer: Display: Initializing Sound Submixes...
[2021.07.25-21.42.42:718][700]LogAudioMixer: Display: Creating Master Submix 'MasterSubmixDefault'
[2021.07.25-21.42.42:718][700]LogAudioMixer: Display: Creating Master Submix 'MasterReverbSubmixDefault'
[2021.07.25-21.42.42:719][700]LogAudioMixer: Display: Creating Master Submix 'MasterEQSubmixDefault'
[2021.07.25-21.42.42:719][700]LogAudioMixer: FMixerPlatformXAudio2::StartAudioStream() called
[2021.07.25-21.42.42:719][700]LogAudioMixer: Display: Output buffers initialized: Frames=1024, Channels=2, Samples=2048
[2021.07.25-21.42.42:729][700]LogAudioMixer: Display: Starting AudioMixerPlatformInterface::RunInternal()
[2021.07.25-21.42.42:729][700]LogAudioMixer: Display: FMixerPlatformXAudio2::SubmitBuffer() called for the first time
[2021.07.25-21.42.42:729][700]LogInit: FAudioDevice initialized.
[2021.07.25-21.42.42:735][700]LogLoad: Game class is 'SeniorGameMode_C'
[2021.07.25-21.42.42:804][700]LogPhysics: Warning: Scale for /Game/Maps-Levels/Maps/ChestMaster/UEDPIE_0_ChestMaster.ChestMaster:PersistentLevel.SM_Crate_2.StaticMeshComponent0 has a component set to zero, which will result in a bad body instance. Scale:X=0.000 Y=0.000 Z=0.000
[2021.07.25-21.42.42:804][700]LogPhysics: Warning: Initialising Body : Scale3D is (nearly) zero: Component: '/Game/Maps-Levels/Maps/ChestMaster/UEDPIE_0_ChestMaster.ChestMaster:PersistentLevel.SM_Crate_2.StaticMeshComponent0' 
[2021.07.25-21.42.42:813][700]LogWorld: Bringing World /Game/Maps-Levels/Maps/ChestMaster/UEDPIE_0_ChestMaster.ChestMaster up for play (max tick rate 0) at 2021.07.25-17.42.42
[2021.07.25-21.42.42:814][700]LogWorld: Bringing up level for play took: 0.078417
[2021.07.25-21.42.42:814][700]LogOnline: OSS: Creating online subsystem instance for: :Context_1
[2021.07.25-21.42.42:826][700]LogSpawn: Warning: SpawnActor failed because no class was specified
[2021.07.25-21.42.42:852][700]LogContentBrowser: Native class hierarchy updated for 'MovieSceneCapture' in 0.0005 seconds. Added 20 classes and 0 folders.
[2021.07.25-21.42.42:852][700]LogGameMode: Display: Match State Changed from EnteringMap to WaitingToStart
[2021.07.25-21.42.42:853][700]LogGameState: Match State Changed from EnteringMap to WaitingToStart
[2021.07.25-21.42.42:853][700]LogGameMode: Display: Match State Changed from WaitingToStart to InProgress
[2021.07.25-21.42.43:344][700]LogWmfMedia: Warning: H264 video type requires Windows 8 or newer (your version is 10.0.19043.1.256.64bit)
[2021.07.25-21.42.43:344][700]LogWmfMedia: Warning: H264 video type requires Windows 8 or newer (your version is 10.0.19043.1.256.64bit)
[2021.07.25-21.42.43:344][700]LogWmfMedia: Warning: H264 video type requires Windows 8 or newer (your version is 10.0.19043.1.256.64bit)
[2021.07.25-21.42.43:344][700]LogWmfMedia: Warning: H264 video type requires Windows 8 or newer (your version is 10.0.19043.1.256.64bit)
[2021.07.25-21.42.43:344][700]LogWmfMedia: Warning: H264 video type requires Windows 8 or newer (your version is 10.0.19043.1.256.64bit)
[2021.07.25-21.42.43:344][700]LogWmfMedia: Warning: H264 video type requires Windows 8 or newer (your version is 10.0.19043.1.256.64bit)
[2021.07.25-21.42.43:344][700]LogWmfMedia: Warning: H264 video type requires Windows 8 or newer (your version is 10.0.19043.1.256.64bit)
[2021.07.25-21.42.43:344][700]LogWmfMedia: Warning: H264 video type requires Windows 8 or newer (your version is 10.0.19043.1.256.64bit)
[2021.07.25-21.42.43:344][700]LogWmfMedia: Warning: H264 video type requires Windows 8 or newer (your version is 10.0.19043.1.256.64bit)
[2021.07.25-21.42.43:344][700]LogWmfMedia: Warning: H264 video type requires Windows 8 or newer (your version is 10.0.19043.1.256.64bit)
[2021.07.25-21.42.43:344][700]LogWmfMedia: Warning: H264 video type requires Windows 8 or newer (your version is 10.0.19043.1.256.64bit)
[2021.07.25-21.42.43:345][700]LogWmfMedia: Warning: H264 video type requires Windows 8 or newer (your version is 10.0.19043.1.256.64bit)
[2021.07.25-21.42.43:345][700]LogWmfMedia: Warning: H264 video type requires Windows 8 or newer (your version is 10.0.19043.1.256.64bit)
[2021.07.25-21.42.43:345][700]LogWmfMedia: Warning: H264 video type requires Windows 8 or newer (your version is 10.0.19043.1.256.64bit)
[2021.07.25-21.42.43:345][700]LogWmfMedia: Warning: H264 video type requires Windows 8 or newer (your version is 10.0.19043.1.256.64bit)
[2021.07.25-21.42.43:345][700]LogWmfMedia: Warning: H264 video type requires Windows 8 or newer (your version is 10.0.19043.1.256.64bit)
[2021.07.25-21.42.43:345][700]LogWmfMedia: Warning: H264 video type requires Windows 8 or newer (your version is 10.0.19043.1.256.64bit)
[2021.07.25-21.42.43:345][700]LogWmfMedia: Warning: H264 video type requires Windows 8 or newer (your version is 10.0.19043.1.256.64bit)
[2021.07.25-21.42.43:345][700]LogWmfMedia: Warning: H264 video type requires Windows 8 or newer (your version is 10.0.19043.1.256.64bit)
[2021.07.25-21.42.43:345][700]LogWmfMedia: Warning: H264 video type requires Windows 8 or newer (your version is 10.0.19043.1.256.64bit)
[2021.07.25-21.42.43:345][700]LogWmfMedia: Warning: H264 video type requires Windows 8 or newer (your version is 10.0.19043.1.256.64bit)
[2021.07.25-21.42.43:345][700]LogWmfMedia: Warning: H264 video type requires Windows 8 or newer (your version is 10.0.19043.1.256.64bit)
[2021.07.25-21.42.43:345][700]LogWmfMedia: Warning: H264 video type requires Windows 8 or newer (your version is 10.0.19043.1.256.64bit)
[2021.07.25-21.42.43:345][700]LogWmfMedia: Warning: H264 video type requires Windows 8 or newer (your version is 10.0.19043.1.256.64bit)
[2021.07.25-21.42.43:345][700]LogWmfMedia: Warning: H264 video type requires Windows 8 or newer (your version is 10.0.19043.1.256.64bit)
[2021.07.25-21.42.43:345][700]LogWmfMedia: Warning: H264 video type requires Windows 8 or newer (your version is 10.0.19043.1.256.64bit)
[2021.07.25-21.42.43:345][700]LogWmfMedia: Warning: H264 video type requires Windows 8 or newer (your version is 10.0.19043.1.256.64bit)
[2021.07.25-21.42.43:345][700]LogWmfMedia: Warning: H264 video type requires Windows 8 or newer (your version is 10.0.19043.1.256.64bit)
[2021.07.25-21.42.43:345][700]LogWmfMedia: Warning: H264 video type requires Windows 8 or newer (your version is 10.0.19043.1.256.64bit)
[2021.07.25-21.42.43:345][700]LogWmfMedia: Warning: H264 video type requires Windows 8 or newer (your version is 10.0.19043.1.256.64bit)
[2021.07.25-21.42.43:345][700]LogWmfMedia: Warning: H264 video type requires Windows 8 or newer (your version is 10.0.19043.1.256.64bit)
[2021.07.25-21.42.43:345][700]LogWmfMedia: Warning: H264 video type requires Windows 8 or newer (your version is 10.0.19043.1.256.64bit)
[2021.07.25-21.42.43:345][700]LogWmfMedia: Warning: H264 video type requires Windows 8 or newer (your version is 10.0.19043.1.256.64bit)
[2021.07.25-21.42.43:345][700]LogWmfMedia: Warning: H264 video type requires Windows 8 or newer (your version is 10.0.19043.1.256.64bit)
[2021.07.25-21.42.43:345][700]LogWmfMedia: Warning: H264 video type requires Windows 8 or newer (your version is 10.0.19043.1.256.64bit)
[2021.07.25-21.42.43:345][700]LogWmfMedia: Warning: H264 video type requires Windows 8 or newer (your version is 10.0.19043.1.256.64bit)
[2021.07.25-21.42.43:345][700]LogWmfMedia: Warning: H264 video type requires Windows 8 or newer (your version is 10.0.19043.1.256.64bit)
[2021.07.25-21.42.43:345][700]LogWmfMedia: Warning: H264 video type requires Windows 8 or newer (your version is 10.0.19043.1.256.64bit)
[2021.07.25-21.42.43:345][700]LogWmfMedia: Warning: H264 video type requires Windows 8 or newer (your version is 10.0.19043.1.256.64bit)
[2021.07.25-21.42.43:345][700]LogWmfMedia: Warning: H264 video type requires Windows 8 or newer (your version is 10.0.19043.1.256.64bit)
[2021.07.25-21.42.43:345][700]LogGameState: Match State Changed from WaitingToStart to InProgress
[2021.07.25-21.42.43:345][700]PIE: Server logged in
[2021.07.25-21.42.43:350][700]PIE: Play in editor total start time 1.162 seconds.
[2021.07.25-21.42.45:414][728]LogTemp: Warning: Right Pupil Y: 148
[2021.07.25-21.42.45:414][728]LogTemp: Warning: Right Pupil Y Mid Point: 152

[2021.07.25-21.42.45:457][729]LogTemp: Warning: Right Pupil Y: 145
[2021.07.25-21.42.45:457][729]LogTemp: Warning: Right Pupil Y Mid Point: 151

[2021.07.25-21.42.45:495][730]LogTemp: Warning: Right Pupil Y: 149
[2021.07.25-21.42.45:495][730]LogTemp: Warning: Right Pupil Y Mid Point: 153

[2021.07.25-21.42.45:543][731]LogTemp: Warning: Right Pupil Y: 151
[2021.07.25-21.42.45:543][731]LogTemp: Warning: Right Pupil Y Mid Point: 153

[2021.07.25-21.42.45:583][732]LogTemp: Warning: Right Pupil Y: 149
[2021.07.25-21.42.45:583][732]LogTemp: Warning: Right Pupil Y Mid Point: 150

[2021.07.25-21.42.45:624][733]LogTemp: Warning: Right Pupil Y: 150
[2021.07.25-21.42.45:625][733]LogTemp: Warning: Right Pupil Y Mid Point: 152

[2021.07.25-21.42.45:666][734]LogTemp: Warning: Right Pupil Y: 154
[2021.07.25-21.42.45:666][734]LogTemp: Warning: Right Pupil Y Mid Point: 148

[2021.07.25-21.42.45:706][735]LogTemp: Warning: Right Pupil Y: 153
[2021.07.25-21.42.45:706][735]LogTemp: Warning: Right Pupil Y Mid Point: 150

[2021.07.25-21.42.45:754][736]LogTemp: Warning: Right Pupil Y: 146
[2021.07.25-21.42.45:754][736]LogTemp: Warning: Right Pupil Y Mid Point: 148

[2021.07.25-21.42.45:795][737]LogTemp: Warning: Right Pupil Y: 144
[2021.07.25-21.42.45:795][737]LogTemp: Warning: Right Pupil Y Mid Point: 148

[2021.07.25-21.42.45:837][738]LogTemp: Warning: Right Pupil Y: 135
[2021.07.25-21.42.45:837][738]LogTemp: Warning: Right Pupil Y Mid Point: 145

[2021.07.25-21.42.45:877][739]LogTemp: Warning: Right Pupil Y: 140
[2021.07.25-21.42.45:877][739]LogTemp: Warning: Right Pupil Y Mid Point: 146

[2021.07.25-21.42.45:920][740]LogTemp: Warning: Right Pupil Y: 139
[2021.07.25-21.42.45:920][740]LogTemp: Warning: Right Pupil Y Mid Point: 145

[2021.07.25-21.42.45:965][741]LogTemp: Warning: Right Pupil Y: 140
[2021.07.25-21.42.45:966][741]LogTemp: Warning: Right Pupil Y Mid Point: 148

[2021.07.25-21.42.46:006][742]LogTemp: Warning: Right Pupil Y: 141
[2021.07.25-21.42.46:006][742]LogTemp: Warning: Right Pupil Y Mid Point: 147

[2021.07.25-21.42.46:046][743]LogTemp: Warning: Right Pupil Y: 145
[2021.07.25-21.42.46:046][743]LogTemp: Warning: Right Pupil Y Mid Point: 150

[2021.07.25-21.42.46:088][744]LogTemp: Warning: Right Pupil Y: 144
[2021.07.25-21.42.46:088][744]LogTemp: Warning: Right Pupil Y Mid Point: 148

[2021.07.25-21.42.46:129][745]LogTemp: Warning: Right Pupil Y: 146
[2021.07.25-21.42.46:129][745]LogTemp: Warning: Right Pupil Y Mid Point: 148

[2021.07.25-21.42.46:168][746]LogTemp: Warning: Right Pupil Y: 144
[2021.07.25-21.42.46:168][746]LogTemp: Warning: Right Pupil Y Mid Point: 150

[2021.07.25-21.42.46:206][747]LogTemp: Warning: Right Pupil Y: 137
[2021.07.25-21.42.46:206][747]LogTemp: Warning: Right Pupil Y Mid Point: 143

[2021.07.25-21.42.46:245][748]LogTemp: Warning: Right Pupil Y: 147
[2021.07.25-21.42.46:245][748]LogTemp: Warning: Right Pupil Y Mid Point: 153

[2021.07.25-21.42.46:285][749]LogTemp: Warning: Right Pupil Y: 147
[2021.07.25-21.42.46:286][749]LogTemp: Warning: Right Pupil Y Mid Point: 153

[2021.07.25-21.42.46:331][750]LogTemp: Warning: Right Pupil Y: 145
[2021.07.25-21.42.46:331][750]LogTemp: Warning: Right Pupil Y Mid Point: 151

[2021.07.25-21.42.46:380][751]LogTemp: Warning: Right Pupil Y: 138
[2021.07.25-21.42.46:380][751]LogTemp: Warning: Right Pupil Y Mid Point: 148

[2021.07.25-21.42.46:427][752]LogTemp: Warning: Right Pupil Y: 137
[2021.07.25-21.42.46:427][752]LogTemp: Warning: Right Pupil Y Mid Point: 147

[2021.07.25-21.42.46:468][753]LogTemp: Warning: Right Pupil Y: 140
[2021.07.25-21.42.46:468][753]LogTemp: Warning: Right Pupil Y Mid Point: 150

[2021.07.25-21.42.46:513][754]LogTemp: Warning: Right Pupil Y: 140
[2021.07.25-21.42.46:513][754]LogTemp: Warning: Right Pupil Y Mid Point: 148

[2021.07.25-21.42.46:556][755]LogTemp: Warning: Right Pupil Y: 141
[2021.07.25-21.42.46:557][755]LogTemp: Warning: Right Pupil Y Mid Point: 147

[2021.07.25-21.42.46:599][756]LogTemp: Warning: Right Pupil Y: 149
[2021.07.25-21.42.46:599][756]LogTemp: Warning: Right Pupil Y Mid Point: 156

[2021.07.25-21.42.46:637][757]LogTemp: Warning: Right Pupil Y: 141
[2021.07.25-21.42.46:637][757]LogTemp: Warning: Right Pupil Y Mid Point: 151

[2021.07.25-21.42.46:679][758]LogTemp: Warning: Right Pupil Y: 135
[2021.07.25-21.42.46:679][758]LogTemp: Warning: Right Pupil Y Mid Point: 141

[2021.07.25-21.42.46:722][759]LogTemp: Warning: Right Pupil Y: 135
[2021.07.25-21.42.46:722][759]LogTemp: Warning: Right Pupil Y Mid Point: 141

[2021.07.25-21.42.46:765][760]LogTemp: Warning: Right Pupil Y: 144
[2021.07.25-21.42.46:765][760]LogTemp: Warning: Right Pupil Y Mid Point: 152

[2021.07.25-21.42.46:805][761]LogTemp: Warning: Right Pupil Y: 142
[2021.07.25-21.42.46:805][761]LogTemp: Warning: Right Pupil Y Mid Point: 148

[2021.07.25-21.42.46:852][762]LogTemp: Warning: Right Pupil Y: 136
[2021.07.25-21.42.46:852][762]LogTemp: Warning: Right Pupil Y Mid Point: 150

[2021.07.25-21.42.46:896][763]LogTemp: Warning: Right Pupil Y: 138
[2021.07.25-21.42.46:896][763]LogTemp: Warning: Right Pupil Y Mid Point: 148

[2021.07.25-21.42.46:936][764]LogTemp: Warning: Right Pupil Y: 120
[2021.07.25-21.42.46:936][764]LogTemp: Warning: Right Pupil Y Mid Point: 141

[2021.07.25-21.42.46:974][765]LogTemp: Warning: Right Pupil Y: 136
[2021.07.25-21.42.46:974][765]LogTemp: Warning: Right Pupil Y Mid Point: 148

[2021.07.25-21.42.47:018][766]LogTemp: Warning: Right Pupil Y: 128
[2021.07.25-21.42.47:018][766]LogTemp: Warning: Right Pupil Y Mid Point: 141

[2021.07.25-21.42.47:068][767]LogTemp: Warning: Right Pupil Y: 130
[2021.07.25-21.42.47:068][767]LogTemp: Warning: Right Pupil Y Mid Point: 143

[2021.07.25-21.42.47:111][768]LogTemp: Warning: Right Pupil Y: 132
[2021.07.25-21.42.47:111][768]LogTemp: Warning: Right Pupil Y Mid Point: 146

[2021.07.25-21.42.47:158][769]LogTemp: Warning: Right Pupil Y: 140
[2021.07.25-21.42.47:158][769]LogTemp: Warning: Right Pupil Y Mid Point: 148

[2021.07.25-21.42.47:201][770]LogTemp: Warning: Right Pupil Y: 131
[2021.07.25-21.42.47:201][770]LogTemp: Warning: Right Pupil Y Mid Point: 147

[2021.07.25-21.42.47:248][771]LogTemp: Warning: Right Pupil Y: 139
[2021.07.25-21.42.47:248][771]LogTemp: Warning: Right Pupil Y Mid Point: 150

[2021.07.25-21.42.47:288][772]LogTemp: Warning: Right Pupil Y: 139
[2021.07.25-21.42.47:288][772]LogTemp: Warning: Right Pupil Y Mid Point: 150

[2021.07.25-21.42.47:334][773]LogTemp: Warning: Right Pupil Y: 138
[2021.07.25-21.42.47:334][773]LogTemp: Warning: Right Pupil Y Mid Point: 146

[2021.07.25-21.42.47:377][774]LogTemp: Warning: Right Pupil Y: 142
[2021.07.25-21.42.47:377][774]LogTemp: Warning: Right Pupil Y Mid Point: 148

[2021.07.25-21.42.47:419][775]LogTemp: Warning: Right Pupil Y: 136
[2021.07.25-21.42.47:419][775]LogTemp: Warning: Right Pupil Y Mid Point: 148

[2021.07.25-21.42.47:463][776]LogTemp: Warning: Right Pupil Y: 134
[2021.07.25-21.42.47:463][776]LogTemp: Warning: Right Pupil Y Mid Point: 150

[2021.07.25-21.42.47:502][777]LogTemp: Warning: Right Pupil Y: 137
[2021.07.25-21.42.47:502][777]LogTemp: Warning: Right Pupil Y Mid Point: 143

[2021.07.25-21.42.47:548][778]LogTemp: Warning: Right Pupil Y: 138
[2021.07.25-21.42.47:548][778]LogTemp: Warning: Right Pupil Y Mid Point: 146

[2021.07.25-21.42.47:589][779]LogTemp: Warning: Right Pupil Y: 142
[2021.07.25-21.42.47:589][779]LogTemp: Warning: Right Pupil Y Mid Point: 146

[2021.07.25-21.42.47:628][780]LogTemp: Warning: Right Pupil Y: 139
[2021.07.25-21.42.47:628][780]LogTemp: Warning: Right Pupil Y Mid Point: 147

[2021.07.25-21.42.47:669][781]LogTemp: Warning: Right Pupil Y: 136
[2021.07.25-21.42.47:669][781]LogTemp: Warning: Right Pupil Y Mid Point: 146

[2021.07.25-21.42.47:714][782]LogTemp: Warning: Right Pupil Y: 133
[2021.07.25-21.42.47:714][782]LogTemp: Warning: Right Pupil Y Mid Point: 141

[2021.07.25-21.42.47:757][783]LogTemp: Warning: Right Pupil Y: 140
[2021.07.25-21.42.47:757][783]LogTemp: Warning: Right Pupil Y Mid Point: 145

[2021.07.25-21.42.47:797][784]LogTemp: Warning: Right Pupil Y: 134
[2021.07.25-21.42.47:797][784]LogTemp: Warning: Right Pupil Y Mid Point: 142

[2021.07.25-21.42.47:838][785]LogTemp: Warning: Right Pupil Y: 132
[2021.07.25-21.42.47:838][785]LogTemp: Warning: Right Pupil Y Mid Point: 140

[2021.07.25-21.42.47:878][786]LogTemp: Warning: Right Pupil Y: 142
[2021.07.25-21.42.47:878][786]LogTemp: Warning: Right Pupil Y Mid Point: 146

[2021.07.25-21.42.47:919][787]LogTemp: Warning: Right Pupil Y: 137
[2021.07.25-21.42.47:919][787]LogTemp: Warning: Right Pupil Y Mid Point: 143

[2021.07.25-21.42.47:966][788]LogTemp: Warning: Right Pupil Y: 140
[2021.07.25-21.42.47:966][788]LogTemp: Warning: Right Pupil Y Mid Point: 146

[2021.07.25-21.42.48:052][795]LogTemp: Warning: Right Pupil Y: 145
[2021.07.25-21.42.48:052][795]LogTemp: Warning: Right Pupil Y Mid Point: 151

[2021.07.25-21.42.48:360][795]LogSlate: Updating window title bar state: overlay mode, drag disabled, window buttons hidden, title bar hidden
[2021.07.25-21.42.48:360][795]LogWorld: BeginTearingDown for /Game/Maps-Levels/Maps/ChestMaster/UEDPIE_0_ChestMaster
[2021.07.25-21.42.48:363][795]LogWorld: UWorld::CleanupWorld for ChestMaster, bSessionEnded=true, bCleanupResources=true
[2021.07.25-21.42.48:378][795]LogSlate: InvalidateAllWidgets triggered.  All widgets were invalidated
[2021.07.25-21.42.48:385][795]LogPlayLevel: Display: Shutting down PIE online subsystems
[2021.07.25-21.42.48:389][795]LogSlate: InvalidateAllWidgets triggered.  All widgets were invalidated
[2021.07.25-21.42.48:414][795]LogAudioMixer: FMixerPlatformXAudio2::StopAudioStream() called
[2021.07.25-21.42.48:415][795]LogAudioMixer: FMixerPlatformXAudio2::StopAudioStream() called
[2021.07.25-21.42.48:438][795]LogSlate: Updating window title bar state: overlay mode, drag disabled, window buttons hidden, title bar hidden
